1.275000000000000000e+01 7.927435311858748612e+00 8.152992255479564188e-01 2.972313269481858811e+01 6.008220010280791445e-01
1.766000000000000014e+01 7.092733270750088970e+00 7.275905843882192192e-01 2.990036369741446620e+01 5.534186759997874461e-01
2.260999999999999943e+01 7.281236799943314075e+00 5.901849805624544976e-01 2.783027444982912613e+01 4.380133352100775701e-01
2.762000000000000099e+01 9.261555361128619879e+00 4.927511464863568724e-01 2.567893163032820425e+01 3.549826853159473439e-01
3.254999999999999716e+01 7.869349271427478421e+00 4.654905102347933199e-01 2.470095951271931867e+01 3.375920372475287867e-01
3.746999999999999886e+01 7.272587184616177147e+00 4.129653930061682465e-01 2.324827859967755472e+01 3.051668686959804200e-01
4.247999999999999687e+01 5.124323923041798956e+00 3.758992950111100240e-01 2.150069456920181565e+01 2.727510045726005972e-01
4.749000000000000199e+01 2.093708192355885345e+00 3.693365144447847137e-01 2.069639032024216263e+01 2.827497090681112546e-01
