Arcana,-35.139647,-69.566690,602
Cle,-35.151357,-69.558544,606
ARGENTINA,-35.163002,-69.550284,612
Vanina,-35.174789,-69.542251,613
Hilda,-35.128137,-69.508986,635
Romelia,-35.127947,-69.558381,639
Borbaran,-35.128072,-69.525447,643
Gabriele,-35.151368,-69.542068,650
La Salinilla,-35.128009,-69.541902,651
Chachahuen,-35.151555,-69.509111,653
La Morocha,-35.151670,-69.492644,656
Guadalupe,-35.128250,-69.492509,657
Znalek,-35.151463,-69.525623,658
El Mataco,-35.139666,-69.550216,659
El Cenizo,-35.139737,-69.533783,660
ADC,-35.163071,-69.533912,661
Isabel,-35.175059,-69.509109,662
Tromen,-35.140016,-69.517415,663
El Clarin,-35.139868,-69.500900,664
Agua de Diaz,-35.175167,-69.492759,665
Ranquil,-35.163146,-69.517424,666
Toribio,-35.104587,-69.525259,669
Cintia,-35.174826,-69.525655,671
Liliana,-35.163212,-69.500955,672
Toune,-35.104561,-69.541779,688
Pucci,-35.081231,-69.508678,689
Roco Maria J.,-35.081214,-69.525133,693
Teresa,-35.081326,-69.492278,694
Rosalia,-35.093025,-69.517002,695
Pea,-35.092874,-69.533484,698
Mela,-35.104515,-69.558169,701
Luisa,-35.092834,-69.549895,702
Flor,-35.081157,-69.541641,703
Abelardo,-35.104730,-69.508760,707
Oye,-35.116193,-69.549999,710
Stavros,-35.093013,-69.500588,713
Constanza,-35.116311,-69.533610,734
Feche,-35.116443,-69.500652,736
Enana,-35.081485,-69.459330,803
Traudel,-35.116385,-69.517139,819
Tatanza,-35.104789,-69.492400,824
Guaymallen,-35.081486,-69.442838,842
Amancay,-35.104787,-69.475838,844
Chulito,-35.093002,-69.451235,845
Manucho,-35.093047,-69.483992,847
Mariano,-35.128480,-69.426693,865
Maki,-35.116745,-69.418402,867
Mario,-35.093264,-69.401824,869
Huarpes,-35.093353,-69.418216,870
Ester,-35.105037,-69.426465,872
Ingo,-35.105127,-69.410048,873
Episteme,-35.081514,-69.393528,899
Cachuen Antu,-35.093381,-69.434726,900
RU-RI,-35.081531,-69.426493,901
Lujan,-35.116634,-69.434989,902
W. Neher,-35.104811,-69.459465,903
Maipu,-35.116597,-69.451383,904
Dana,-35.104878,-69.443090,905
Pavel,-35.128210,-69.476071,906
Renee,-35.093109,-69.467770,909
Amelie,-35.128314,-69.443056,912
Clement,-35.128343,-69.459662,914
Simona,-35.140154,-69.435072,916
Alma,-35.116457,-69.484359,918
Astropis,-35.081347,-69.475692,919
Petr,-35.116651,-69.467767,920
Jemina,-35.081569,-69.409897,1472
Yeka,-35.104565,-69.550039,1570
Los Piojos,-35.110346,-69.554186,1574
Phill Collins,-35.110465,-69.545969,1622
Ticrabe,-35.175101,-69.476377,1731
Vegetta Jr.,-35.175226,-69.459889,1732
Tan Sri Packiri,-35.163314,-69.484454,1734
Julieta Jr. ,-35.139972,-69.484392,1755
Peter Mazur,-35.110531,-69.529497,1765
Heisenberg,-35.116325,-69.541956,1773