\relax 
\providecommand\hyper@newdestlabel[2]{}
\@writefile{toc}{\contentsline {chapter}{\numberline {2}COSMIC RAYS AND EXTENSIVE AIR SHOWERS}{5}{chapter.2}\protected@file@percent }
\@writefile{lof}{\addvspace {10\p@ }}
\@writefile{lot}{\addvspace {10\p@ }}
\newlabel{chap:UHECRs}{{2}{5}{COSMIC RAYS AND EXTENSIVE AIR SHOWERS}{chapter.2}{}}
\newlabel{chap:UHECRs@cref}{{[chapter][2][]2}{[1][5][]5}}
\@writefile{toc}{\contentsline {section}{\numberline {2.1}The Flux of Cosmic Rays}{6}{section.2.1}\protected@file@percent }
\newlabel{sec:spectrum}{{2.1}{6}{The Flux of Cosmic Rays}{section.2.1}{}}
\newlabel{sec:spectrum@cref}{{[section][1][2]2.1}{[1][6][]6}}
\@writefile{toc}{\contentsline {subsection}{\numberline {2.1.1}Features in the Cosmic Ray Energy Spectrum}{6}{subsection.2.1.1}\protected@file@percent }
\newlabel{sec:SpectrumFeatures}{{2.1.1}{6}{Features in the Cosmic Ray Energy Spectrum}{subsection.2.1.1}{}}
\newlabel{sec:SpectrumFeatures@cref}{{[subsection][1][2,1]2.1.1}{[1][6][]6}}
\@writefile{lof}{\contentsline {figure}{\numberline {2.1}{\ignorespaces All particle energy spectrum of cosmic rays}}{7}{figure.caption.14}\protected@file@percent }
\providecommand*\caption@xref[2]{\@setref\relax\@undefined{#1}}
\newlabel{fig:spectrum}{{2.1}{7}{All particle energy spectrum of cosmic rays}{figure.caption.14}{}}
\newlabel{fig:spectrum@cref}{{[figure][1][2]2.1}{[1][7][]7}}
\@writefile{lof}{\contentsline {figure}{\numberline {2.2}{\ignorespaces Auger spectrum above \SI {2.5e18}{\electronvolt }}}{8}{figure.caption.15}\protected@file@percent }
\newlabel{fig:auger-spectrum}{{2.2}{8}{Auger spectrum above \SI {2.5e18}{\electronvolt }}{figure.caption.15}{}}
\newlabel{fig:auger-spectrum@cref}{{[figure][2][2]2.2}{[1][8][]8}}
\@writefile{toc}{\contentsline {subsection}{\numberline {2.1.2}The Cutoff of the Cosmic Ray Energy Spectrum}{8}{subsection.2.1.2}\protected@file@percent }
\newlabel{eq:GZKprod}{{2.2}{9}{The Cutoff of the Cosmic Ray Energy Spectrum}{equation.2.1.2}{}}
\newlabel{eq:GZKprod@cref}{{[equation][2][2]2.2}{[1][9][]9}}
\newlabel{eq:GZKprod2}{{2.3}{9}{The Cutoff of the Cosmic Ray Energy Spectrum}{equation.2.1.3}{}}
\newlabel{eq:GZKprod2@cref}{{[equation][3][2]2.3}{[1][9][]9}}
\@writefile{toc}{\contentsline {section}{\numberline {2.2}Detection of Cosmic Rays}{10}{section.2.2}\protected@file@percent }
\@writefile{toc}{\contentsline {subsection}{\numberline {2.2.1}Extensive Air Showers}{11}{subsection.2.2.1}\protected@file@percent }
\@writefile{lof}{\contentsline {figure}{\numberline {2.3}{\ignorespaces Extensive air shower development}}{11}{figure.caption.16}\protected@file@percent }
\newlabel{fig:airshower}{{2.3}{11}{Extensive air shower development}{figure.caption.16}{}}
\newlabel{fig:airshower@cref}{{[figure][3][2]2.3}{[1][11][]11}}
\@writefile{toc}{\contentsline {subsection}{\numberline {2.2.2}Characterizing an EAS}{12}{subsection.2.2.2}\protected@file@percent }
\newlabel{subsec:EASchar}{{2.2.2}{12}{Characterizing an EAS}{subsection.2.2.2}{}}
\newlabel{subsec:EASchar@cref}{{[subsection][2][2,2]2.2.2}{[1][12][]12}}
\@writefile{lof}{\contentsline {figure}{\numberline {2.4}{\ignorespaces Extensive air shower characteristics}}{14}{figure.caption.17}\protected@file@percent }
\newlabel{fig:shower_chars}{{2.4}{14}{Extensive air shower characteristics}{figure.caption.17}{}}
\newlabel{fig:shower_chars@cref}{{[figure][4][2]2.4}{[1][14][]14}}
\@writefile{toc}{\contentsline {section}{\numberline {2.3}The Composition of Ultra-High Energy Cosmic Rays}{15}{section.2.3}\protected@file@percent }
\newlabel{sec:composition}{{2.3}{15}{The Composition of Ultra-High Energy Cosmic Rays}{section.2.3}{}}
\newlabel{sec:composition@cref}{{[section][3][2]2.3}{[1][14][]15}}
\@writefile{lof}{\contentsline {figure}{\numberline {2.5}{\ignorespaces KASCADE+KASCADE-Grande cosmic ray composition measurement}}{15}{figure.caption.18}\protected@file@percent }
\newlabel{fig:kascade_grande_composition}{{2.5}{15}{KASCADE+KASCADE-Grande cosmic ray composition measurement}{figure.caption.18}{}}
\newlabel{fig:kascade_grande_composition@cref}{{[figure][5][2]2.5}{[1][15][]15}}
\@writefile{lof}{\contentsline {figure}{\numberline {2.6}{\ignorespaces Pierre Auger Observatory $\mathinner {\langle {X_\mathrm  {max}}\rangle }$ and $\sigma ^{2}(X_\mathrm  {max})$}}{16}{figure.caption.19}\protected@file@percent }
\newlabel{fig:auger_xmax}{{2.6}{16}{Pierre Auger Observatory $\braket {X_\mathrm {max}}$ and $\sigma ^{2}(X_\mathrm {max})$}{figure.caption.19}{}}
\newlabel{fig:auger_xmax@cref}{{[figure][6][2]2.6}{[1][16][]16}}
\@writefile{lof}{\contentsline {figure}{\numberline {2.7}{\ignorespaces Pierre Auger Observatory $\qopname  \relax o{ln}(A)$ moments}}{17}{figure.caption.20}\protected@file@percent }
\newlabel{fig:auger_lnA}{{2.7}{17}{Pierre Auger Observatory $\ln (A)$ moments}{figure.caption.20}{}}
\newlabel{fig:auger_lnA@cref}{{[figure][7][2]2.7}{[1][17][]17}}
\@setckpt{./chapters/02_CosmicRaysAndExtensiveAirshowers}{
\setcounter{page}{18}
\setcounter{equation}{10}
\setcounter{enumi}{0}
\setcounter{enumii}{0}
\setcounter{enumiii}{0}
\setcounter{enumiv}{0}
\setcounter{footnote}{2}
\setcounter{mpfootnote}{0}
\setcounter{part}{0}
\setcounter{chapter}{2}
\setcounter{section}{3}
\setcounter{subsection}{0}
\setcounter{subsubsection}{0}
\setcounter{paragraph}{0}
\setcounter{subparagraph}{0}
\setcounter{figure}{7}
\setcounter{table}{0}
\setcounter{Item}{0}
\setcounter{Hfootnote}{2}
\setcounter{bookmark@seq@number}{0}
\setcounter{caption@flags}{2}
\setcounter{continuedfloat}{0}
\setcounter{parentequation}{0}
\setcounter{LT@tables}{0}
\setcounter{LT@chunks}{0}
\setcounter{subfigure}{0}
\setcounter{subtable}{0}
\setcounter{lofdepth}{1}
\setcounter{lotdepth}{1}
\setcounter{float@type}{4}
\setcounter{tabx@nest}{0}
\setcounter{listtotal}{0}
\setcounter{listcount}{0}
\setcounter{liststart}{0}
\setcounter{liststop}{0}
\setcounter{citecount}{0}
\setcounter{citetotal}{0}
\setcounter{multicitecount}{0}
\setcounter{multicitetotal}{0}
\setcounter{instcount}{50}
\setcounter{maxnames}{3}
\setcounter{minnames}{1}
\setcounter{maxitems}{3}
\setcounter{minitems}{1}
\setcounter{citecounter}{0}
\setcounter{maxcitecounter}{0}
\setcounter{savedcitecounter}{0}
\setcounter{uniquelist}{0}
\setcounter{uniquename}{0}
\setcounter{refsection}{0}
\setcounter{refsegment}{0}
\setcounter{maxextratitle}{0}
\setcounter{maxextratitleyear}{0}
\setcounter{maxextraname}{8}
\setcounter{maxextradate}{0}
\setcounter{maxextraalpha}{0}
\setcounter{abbrvpenalty}{50}
\setcounter{highnamepenalty}{50}
\setcounter{lownamepenalty}{25}
\setcounter{maxparens}{3}
\setcounter{parenlevel}{0}
\setcounter{blx@maxsection}{0}
\setcounter{blx@maxsegment@0}{0}
\setcounter{blx@sectionciteorder@0}{36}
\setcounter{mincomprange}{10}
\setcounter{maxcomprange}{100000}
\setcounter{mincompwidth}{1}
\setcounter{afterword}{0}
\setcounter{savedafterword}{0}
\setcounter{annotator}{0}
\setcounter{savedannotator}{0}
\setcounter{author}{0}
\setcounter{savedauthor}{0}
\setcounter{bookauthor}{0}
\setcounter{savedbookauthor}{0}
\setcounter{commentator}{0}
\setcounter{savedcommentator}{0}
\setcounter{editor}{0}
\setcounter{savededitor}{0}
\setcounter{editora}{0}
\setcounter{savededitora}{0}
\setcounter{editorb}{0}
\setcounter{savededitorb}{0}
\setcounter{editorc}{0}
\setcounter{savededitorc}{0}
\setcounter{foreword}{0}
\setcounter{savedforeword}{0}
\setcounter{holder}{0}
\setcounter{savedholder}{0}
\setcounter{introduction}{0}
\setcounter{savedintroduction}{0}
\setcounter{namea}{0}
\setcounter{savednamea}{0}
\setcounter{nameb}{0}
\setcounter{savednameb}{0}
\setcounter{namec}{0}
\setcounter{savednamec}{0}
\setcounter{translator}{0}
\setcounter{savedtranslator}{0}
\setcounter{shortauthor}{0}
\setcounter{savedshortauthor}{0}
\setcounter{shorteditor}{0}
\setcounter{savedshorteditor}{0}
\setcounter{labelname}{0}
\setcounter{savedlabelname}{0}
\setcounter{institution}{0}
\setcounter{savedinstitution}{0}
\setcounter{lista}{0}
\setcounter{savedlista}{0}
\setcounter{listb}{0}
\setcounter{savedlistb}{0}
\setcounter{listc}{0}
\setcounter{savedlistc}{0}
\setcounter{listd}{0}
\setcounter{savedlistd}{0}
\setcounter{liste}{0}
\setcounter{savedliste}{0}
\setcounter{listf}{0}
\setcounter{savedlistf}{0}
\setcounter{location}{0}
\setcounter{savedlocation}{0}
\setcounter{organization}{0}
\setcounter{savedorganization}{0}
\setcounter{origlocation}{0}
\setcounter{savedoriglocation}{0}
\setcounter{origpublisher}{0}
\setcounter{savedorigpublisher}{0}
\setcounter{publisher}{0}
\setcounter{savedpublisher}{0}
\setcounter{language}{0}
\setcounter{savedlanguage}{0}
\setcounter{origlanguage}{0}
\setcounter{savedoriglanguage}{0}
\setcounter{pageref}{0}
\setcounter{savedpageref}{0}
\setcounter{textcitecount}{0}
\setcounter{textcitetotal}{0}
\setcounter{textcitemaxnames}{0}
\setcounter{biburlbigbreakpenalty}{100}
\setcounter{biburlbreakpenalty}{200}
\setcounter{biburlnumpenalty}{0}
\setcounter{biburlucpenalty}{0}
\setcounter{biburllcpenalty}{0}
\setcounter{smartand}{1}
\setcounter{bbx:relatedcount}{0}
\setcounter{bbx:relatedtotal}{0}
\setcounter{currfiledepth}{0}
\setcounter{su@anzahl}{0}
\setcounter{section@level}{1}
}
