\relax 
\providecommand\hyper@newdestlabel[2]{}
\@writefile{toc}{\contentsline {chapter}{\numberline {3}THE PIERRE AUGER OBSERVATORY}{19}{chapter.3}\protected@file@percent }
\@writefile{lof}{\addvspace {10\p@ }}
\@writefile{lot}{\addvspace {10\p@ }}
\newlabel{chap:PAO}{{3}{19}{THE PIERRE AUGER OBSERVATORY}{chapter.3}{}}
\newlabel{chap:PAO@cref}{{[chapter][3][]3}{[1][19][]19}}
\@writefile{lof}{\contentsline {figure}{\numberline {3.1}{\ignorespaces Layout of the Pierre Auger Observatory}}{19}{figure.caption.21}\protected@file@percent }
\newlabel{fig:PAO}{{3.1}{19}{Layout of the Pierre Auger Observatory}{figure.caption.21}{}}
\newlabel{fig:PAO@cref}{{[figure][1][3]3.1}{[1][19][]19}}
\@writefile{toc}{\contentsline {section}{\numberline {3.1}The Fluorescence Detector}{20}{section.3.1}\protected@file@percent }
\newlabel{sec:FDAuger}{{3.1}{20}{The Fluorescence Detector}{section.3.1}{}}
\newlabel{sec:FDAuger@cref}{{[section][1][3]3.1}{[1][20][]20}}
\@writefile{lof}{\contentsline {figure}{\numberline {3.2}{\ignorespaces FD buildings and telescope}}{21}{figure.caption.22}\protected@file@percent }
\newlabel{fig:FD}{{3.2}{21}{FD buildings and telescope}{figure.caption.22}{}}
\newlabel{fig:FD@cref}{{[figure][2][3]3.2}{[1][20][]21}}
\@writefile{toc}{\contentsline {section}{\numberline {3.2}The Surface Detector}{21}{section.3.2}\protected@file@percent }
\newlabel{sec:SDAuger}{{3.2}{21}{The Surface Detector}{section.3.2}{}}
\newlabel{sec:SDAuger@cref}{{[section][2][3]3.2}{[1][21][]21}}
\@writefile{lof}{\contentsline {figure}{\numberline {3.3}{\ignorespaces Components of a WCD}}{22}{figure.caption.23}\protected@file@percent }
\newlabel{fig:WCD}{{3.3}{22}{Components of a WCD}{figure.caption.23}{}}
\newlabel{fig:WCD@cref}{{[figure][3][3]3.3}{[1][22][]22}}
\@writefile{toc}{\contentsline {subsection}{\numberline {3.2.1}The SD Signal Calibration}{22}{subsection.3.2.1}\protected@file@percent }
\newlabel{sec:SDCalib}{{3.2.1}{22}{The SD Signal Calibration}{subsection.3.2.1}{}}
\newlabel{sec:SDCalib@cref}{{[subsection][1][3,2]3.2.1}{[1][22][]22}}
\@writefile{lof}{\contentsline {figure}{\numberline {3.4}{\ignorespaces Charge Histogram}}{23}{figure.caption.24}\protected@file@percent }
\newlabel{fig:VEM}{{3.4}{23}{Charge Histogram}{figure.caption.24}{}}
\newlabel{fig:VEM@cref}{{[figure][4][3]3.4}{[1][23][]23}}
\@writefile{toc}{\contentsline {subsection}{\numberline {3.2.2}The SD Trigger System}{23}{subsection.3.2.2}\protected@file@percent }
\newlabel{sec:SDTrigger}{{3.2.2}{23}{The SD Trigger System}{subsection.3.2.2}{}}
\newlabel{sec:SDTrigger@cref}{{[subsection][2][3,2]3.2.2}{[1][23][]23}}
\@writefile{lof}{\contentsline {figure}{\numberline {3.5}{\ignorespaces SD low- and high-level trigger}}{24}{figure.caption.25}\protected@file@percent }
\newlabel{fig:SDTrigHirarchy}{{3.5}{24}{SD low- and high-level trigger}{figure.caption.25}{}}
\newlabel{fig:SDTrigHirarchy@cref}{{[figure][5][3]3.5}{[1][24][]24}}
\@writefile{lof}{\contentsline {figure}{\numberline {3.6}{\ignorespaces SD T3 trigger example configurations}}{25}{figure.caption.26}\protected@file@percent }
\newlabel{fig:SD_Trigger}{{3.6}{25}{SD T3 trigger example configurations}{figure.caption.26}{}}
\newlabel{fig:SD_Trigger@cref}{{[figure][6][3]3.6}{[1][24][]25}}
\@writefile{toc}{\contentsline {subsection}{\numberline {3.2.3}The SD Shower Reconstruction}{26}{subsection.3.2.3}\protected@file@percent }
\@writefile{toc}{\contentsline {section}{\numberline {3.3}The AugerPrime Upgrade}{27}{section.3.3}\protected@file@percent }
\newlabel{sec:AugerPrime}{{3.3}{27}{The AugerPrime Upgrade}{section.3.3}{}}
\newlabel{sec:AugerPrime@cref}{{[section][3][3]3.3}{[1][27][]27}}
\@writefile{toc}{\contentsline {subsection}{\numberline {3.3.1}The Surface Scintillator Detector}{28}{subsection.3.3.1}\protected@file@percent }
\@writefile{lof}{\contentsline {figure}{\numberline {3.7}{\ignorespaces SSD schematics and example of SSD in the array}}{29}{figure.caption.27}\protected@file@percent }
\newlabel{fig:SSD}{{3.7}{29}{SSD schematics and example of SSD in the array}{figure.caption.27}{}}
\newlabel{fig:SSD@cref}{{[figure][7][3]3.7}{[1][29][]29}}
\@writefile{toc}{\contentsline {subsection}{\numberline {3.3.2}The Upgraded Unified Board}{29}{subsection.3.3.2}\protected@file@percent }
\newlabel{sec:UUB}{{3.3.2}{29}{The Upgraded Unified Board}{subsection.3.3.2}{}}
\newlabel{sec:UUB@cref}{{[subsection][2][3,3]3.3.2}{[1][29][]29}}
\@writefile{toc}{\contentsline {subsection}{\numberline {3.3.3}Deployment of AugerPrime}{30}{subsection.3.3.3}\protected@file@percent }
\@writefile{lof}{\contentsline {figure}{\numberline {3.8}{\ignorespaces AugerPrime deployment}}{30}{figure.caption.28}\protected@file@percent }
\newlabel{fig:SSD-PPA-Deploy}{{3.8}{30}{AugerPrime deployment}{figure.caption.28}{}}
\newlabel{fig:SSD-PPA-Deploy@cref}{{[figure][8][3]3.8}{[1][30][]30}}
\@writefile{toc}{\contentsline {section}{\numberline {3.4}The CDAS Software}{31}{section.3.4}\protected@file@percent }
\@writefile{toc}{\contentsline {section}{\numberline {3.5}The $\overline  {\textrm  {Off}}$\hspace  {.05em}\raisebox {.4ex}{$\underline {\textrm  {line}}$}{} Framework}{31}{section.3.5}\protected@file@percent }
\@writefile{lof}{\contentsline {figure}{\numberline {3.9}{\ignorespaces $\overline  {\textrm  {Off}}$\hspace  {.05em}\raisebox {.4ex}{$\underline {\textrm  {line}}$}{} framework schematic}}{32}{figure.caption.29}\protected@file@percent }
\newlabel{fig:offline}{{3.9}{32}{\Offline {} framework schematic}{figure.caption.29}{}}
\newlabel{fig:offline@cref}{{[figure][9][3]3.9}{[1][32][]32}}
\@writefile{toc}{\contentsline {subsection}{\numberline {3.5.1}Advanced Data Summary Trees}{33}{subsection.3.5.1}\protected@file@percent }
\@writefile{toc}{\contentsline {subsection}{\numberline {3.5.2}The Python tool PyIK}{33}{subsection.3.5.2}\protected@file@percent }
\newlabel{sec:pyik}{{3.5.2}{33}{The Python tool PyIK}{subsection.3.5.2}{}}
\newlabel{sec:pyik@cref}{{[subsection][2][3,5]3.5.2}{[1][33][]33}}
\@setckpt{./chapters/03_PierreAugerObservatory}{
\setcounter{page}{34}
\setcounter{equation}{7}
\setcounter{enumi}{5}
\setcounter{enumii}{0}
\setcounter{enumiii}{0}
\setcounter{enumiv}{0}
\setcounter{footnote}{0}
\setcounter{mpfootnote}{0}
\setcounter{part}{0}
\setcounter{chapter}{3}
\setcounter{section}{5}
\setcounter{subsection}{2}
\setcounter{subsubsection}{0}
\setcounter{paragraph}{0}
\setcounter{subparagraph}{0}
\setcounter{figure}{9}
\setcounter{table}{0}
\setcounter{Item}{5}
\setcounter{Hfootnote}{2}
\setcounter{bookmark@seq@number}{0}
\setcounter{caption@flags}{2}
\setcounter{continuedfloat}{0}
\setcounter{parentequation}{0}
\setcounter{LT@tables}{0}
\setcounter{LT@chunks}{0}
\setcounter{subfigure}{0}
\setcounter{subtable}{0}
\setcounter{lofdepth}{1}
\setcounter{lotdepth}{1}
\setcounter{float@type}{4}
\setcounter{tabx@nest}{0}
\setcounter{listtotal}{0}
\setcounter{listcount}{0}
\setcounter{liststart}{0}
\setcounter{liststop}{0}
\setcounter{citecount}{0}
\setcounter{citetotal}{0}
\setcounter{multicitecount}{0}
\setcounter{multicitetotal}{0}
\setcounter{instcount}{104}
\setcounter{maxnames}{3}
\setcounter{minnames}{1}
\setcounter{maxitems}{3}
\setcounter{minitems}{1}
\setcounter{citecounter}{0}
\setcounter{maxcitecounter}{0}
\setcounter{savedcitecounter}{0}
\setcounter{uniquelist}{0}
\setcounter{uniquename}{0}
\setcounter{refsection}{0}
\setcounter{refsegment}{0}
\setcounter{maxextratitle}{0}
\setcounter{maxextratitleyear}{0}
\setcounter{maxextraname}{8}
\setcounter{maxextradate}{0}
\setcounter{maxextraalpha}{0}
\setcounter{abbrvpenalty}{50}
\setcounter{highnamepenalty}{50}
\setcounter{lownamepenalty}{25}
\setcounter{maxparens}{3}
\setcounter{parenlevel}{0}
\setcounter{blx@maxsection}{0}
\setcounter{blx@maxsegment@0}{0}
\setcounter{blx@sectionciteorder@0}{85}
\setcounter{mincomprange}{10}
\setcounter{maxcomprange}{100000}
\setcounter{mincompwidth}{1}
\setcounter{afterword}{0}
\setcounter{savedafterword}{0}
\setcounter{annotator}{0}
\setcounter{savedannotator}{0}
\setcounter{author}{0}
\setcounter{savedauthor}{0}
\setcounter{bookauthor}{0}
\setcounter{savedbookauthor}{0}
\setcounter{commentator}{0}
\setcounter{savedcommentator}{0}
\setcounter{editor}{0}
\setcounter{savededitor}{0}
\setcounter{editora}{0}
\setcounter{savededitora}{0}
\setcounter{editorb}{0}
\setcounter{savededitorb}{0}
\setcounter{editorc}{0}
\setcounter{savededitorc}{0}
\setcounter{foreword}{0}
\setcounter{savedforeword}{0}
\setcounter{holder}{0}
\setcounter{savedholder}{0}
\setcounter{introduction}{0}
\setcounter{savedintroduction}{0}
\setcounter{namea}{0}
\setcounter{savednamea}{0}
\setcounter{nameb}{0}
\setcounter{savednameb}{0}
\setcounter{namec}{0}
\setcounter{savednamec}{0}
\setcounter{translator}{0}
\setcounter{savedtranslator}{0}
\setcounter{shortauthor}{0}
\setcounter{savedshortauthor}{0}
\setcounter{shorteditor}{0}
\setcounter{savedshorteditor}{0}
\setcounter{labelname}{0}
\setcounter{savedlabelname}{0}
\setcounter{institution}{0}
\setcounter{savedinstitution}{0}
\setcounter{lista}{0}
\setcounter{savedlista}{0}
\setcounter{listb}{0}
\setcounter{savedlistb}{0}
\setcounter{listc}{0}
\setcounter{savedlistc}{0}
\setcounter{listd}{0}
\setcounter{savedlistd}{0}
\setcounter{liste}{0}
\setcounter{savedliste}{0}
\setcounter{listf}{0}
\setcounter{savedlistf}{0}
\setcounter{location}{0}
\setcounter{savedlocation}{0}
\setcounter{organization}{0}
\setcounter{savedorganization}{0}
\setcounter{origlocation}{0}
\setcounter{savedoriglocation}{0}
\setcounter{origpublisher}{0}
\setcounter{savedorigpublisher}{0}
\setcounter{publisher}{0}
\setcounter{savedpublisher}{0}
\setcounter{language}{0}
\setcounter{savedlanguage}{0}
\setcounter{origlanguage}{0}
\setcounter{savedoriglanguage}{0}
\setcounter{pageref}{0}
\setcounter{savedpageref}{0}
\setcounter{textcitecount}{0}
\setcounter{textcitetotal}{0}
\setcounter{textcitemaxnames}{0}
\setcounter{biburlbigbreakpenalty}{100}
\setcounter{biburlbreakpenalty}{200}
\setcounter{biburlnumpenalty}{0}
\setcounter{biburlucpenalty}{0}
\setcounter{biburllcpenalty}{0}
\setcounter{smartand}{1}
\setcounter{bbx:relatedcount}{0}
\setcounter{bbx:relatedtotal}{0}
\setcounter{currfiledepth}{0}
\setcounter{su@anzahl}{0}
\setcounter{section@level}{2}
}
