\relax 
\providecommand\hyper@newdestlabel[2]{}
\@writefile{toc}{\contentsline {chapter}{\numberline {7}RECONSTRUCTION OF $X_{\text  {max}}${} FROM AUGERPRIME SIMULATIONS}{85}{chapter.7}\protected@file@percent }
\@writefile{lof}{\addvspace {10\p@ }}
\@writefile{lot}{\addvspace {10\p@ }}
\newlabel{chap:THEANALYSIS}{{7}{85}{RECONSTRUCTION OF \xmax {} FROM AUGERPRIME SIMULATIONS}{chapter.7}{}}
\newlabel{chap:THEANALYSIS@cref}{{[chapter][7][]7}{[1][85][]85}}
\@writefile{lot}{\contentsline {table}{\numberline {7.1}{\ignorespaces Simulation data split and network settings}}{85}{table.caption.78}\protected@file@percent }
\newlabel{tab:split-settings}{{7.1}{85}{Simulation data split and network settings}{table.caption.78}{}}
\newlabel{tab:split-settings@cref}{{[table][1][7]7.1}{[1][85][]85}}
\@writefile{toc}{\contentsline {section}{\numberline {7.1}Network Architecture}{86}{section.7.1}\protected@file@percent }
\@writefile{lof}{\contentsline {figure}{\numberline {7.1}{\ignorespaces Network architecture}}{86}{figure.caption.79}\protected@file@percent }
\newlabel{fig:network_architecture}{{7.1}{86}{Network architecture}{figure.caption.79}{}}
\newlabel{fig:network_architecture@cref}{{[figure][1][7]7.1}{[1][86][]86}}
\@writefile{toc}{\contentsline {subsection}{\numberline {7.1.1}3D Cartesian Trace Convolution}{87}{subsection.7.1.1}\protected@file@percent }
\@writefile{lof}{\contentsline {figure}{\numberline {7.2}{\ignorespaces Trace convolution of one station}}{87}{figure.caption.80}\protected@file@percent }
\newlabel{fig:trace_conv}{{7.2}{87}{Trace convolution of one station}{figure.caption.80}{}}
\newlabel{fig:trace_conv@cref}{{[figure][2][7]7.2}{[1][87][]87}}
\@writefile{toc}{\contentsline {subsection}{\numberline {7.1.2}2D Hexagonal Group Convolution}{88}{subsection.7.1.2}\protected@file@percent }
\@writefile{toc}{\contentsline {subsection}{\numberline {7.1.3}Final Layers}{88}{subsection.7.1.3}\protected@file@percent }
\@writefile{toc}{\contentsline {section}{\numberline {7.2}In-training Data Augmentation}{89}{section.7.2}\protected@file@percent }
\@writefile{toc}{\contentsline {subsection}{\numberline {7.2.1}Re-weighting of the $X_{\text  {max,MC}}${} Distribution}{89}{subsection.7.2.1}\protected@file@percent }
\newlabel{sec:event-weighting}{{7.2.1}{89}{Re-weighting of the \xmaxmc {} Distribution}{subsection.7.2.1}{}}
\newlabel{sec:event-weighting@cref}{{[subsection][1][7,2]7.2.1}{[1][89][]89}}
\@writefile{lof}{\contentsline {figure}{\numberline {7.3}{\ignorespaces Event weighting}}{89}{figure.caption.81}\protected@file@percent }
\newlabel{fig:event_weighting}{{7.3}{89}{Event weighting}{figure.caption.81}{}}
\newlabel{fig:event_weighting@cref}{{[figure][3][7]7.3}{[1][89][]89}}
\@writefile{toc}{\contentsline {subsection}{\numberline {7.2.2}Non-functioning Station Simulation}{90}{subsection.7.2.2}\protected@file@percent }
\@writefile{toc}{\contentsline {section}{\numberline {7.3}$X_{\text  {max}}${} Reconstruction Results with AugerPrime Simulations}{91}{section.7.3}\protected@file@percent }
\@writefile{toc}{\contentsline {subsection}{\numberline {7.3.1}Evaluation Criteria}{91}{subsection.7.3.1}\protected@file@percent }
\newlabel{eq:corr}{{7.6}{92}{Evaluation Criteria}{equation.7.3.6}{}}
\newlabel{eq:corr@cref}{{[equation][6][7]7.6}{[1][91][]92}}
\@writefile{toc}{\contentsline {subsection}{\numberline {7.3.2}Choosing the Epoch of Evaluation}{92}{subsection.7.3.2}\protected@file@percent }
\@writefile{lof}{\contentsline {figure}{\numberline {7.4}{\ignorespaces Cost and metric evolution with and without SSD trace information}}{93}{figure.caption.82}\protected@file@percent }
\newlabel{fig:evaluation}{{7.4}{93}{Cost and metric evolution with and without SSD trace information}{figure.caption.82}{}}
\newlabel{fig:evaluation@cref}{{[figure][4][7]7.4}{[1][92][]93}}
\@writefile{toc}{\contentsline {subsection}{\numberline {7.3.3}Evaluating the Model with SSD Trace Information}{93}{subsection.7.3.3}\protected@file@percent }
\@writefile{lof}{\contentsline {figure}{\numberline {7.5}{\ignorespaces $X_{\text  {max}}${} correlation with SSD}}{94}{figure.caption.83}\protected@file@percent }
\newlabel{fig:correlation_wSSD}{{7.5}{94}{\xmax {} correlation with SSD}{figure.caption.83}{}}
\newlabel{fig:correlation_wSSD@cref}{{[figure][5][7]7.5}{[1][94][]94}}
\@writefile{lof}{\contentsline {figure}{\numberline {7.6}{\ignorespaces $\langle \Delta X_{\text  {max,DNN-MC}} \rangle ${} and $\sigma \left (\Delta X_{\text  {max,DNN-MC}} \right )${} vs\onedot  $E_\text  {SD,rec}${} with SSD data}}{95}{figure.caption.84}\protected@file@percent }
\newlabel{fig:bias_resoltion_wSSD_vs_E}{{7.6}{95}{\delxmaxmu {} and \delxmaxsigma {} \vs \ESD {} with SSD data}{figure.caption.84}{}}
\newlabel{fig:bias_resoltion_wSSD_vs_E@cref}{{[figure][6][7]7.6}{[1][94][]95}}
\@writefile{lof}{\contentsline {figure}{\numberline {7.7}{\ignorespaces $X_{\text  {max,MC}}${} and $X_{\text  {max,DNN}}${} test set split by primary}}{96}{figure.caption.85}\protected@file@percent }
\newlabel{fig:xmax-split}{{7.7}{96}{\xmaxmc {} and \xmaxdnn {} test set split by primary}{figure.caption.85}{}}
\newlabel{fig:xmax-split@cref}{{[figure][7][7]7.7}{[1][96][]96}}
\@writefile{toc}{\contentsline {subsection}{\numberline {7.3.4}Evaluating the Model without SSD Trace Information}{96}{subsection.7.3.4}\protected@file@percent }
\@writefile{lof}{\contentsline {figure}{\numberline {7.8}{\ignorespaces $X_{\text  {max}}${} correlation without SSD}}{96}{figure.caption.86}\protected@file@percent }
\newlabel{fig:correlation_woSSD}{{7.8}{96}{\xmax {} correlation without SSD}{figure.caption.86}{}}
\newlabel{fig:correlation_woSSD@cref}{{[figure][8][7]7.8}{[1][96][]96}}
\@writefile{lof}{\contentsline {figure}{\numberline {7.9}{\ignorespaces $\langle \Delta X_{\text  {max,DNN-MC}} \rangle ${} and $\sigma \left (\Delta X_{\text  {max,DNN-MC}} \right )${} vs\onedot  $E_\text  {SD,rec}${} without SSD data}}{97}{figure.caption.87}\protected@file@percent }
\newlabel{fig:bias_resolution_woSSD_vs_E}{{7.9}{97}{\delxmaxmu {} and \delxmaxsigma {} \vs \ESD {} without SSD data}{figure.caption.87}{}}
\newlabel{fig:bias_resolution_woSSD_vs_E@cref}{{[figure][9][7]7.9}{[1][97][]97}}
\@writefile{toc}{\contentsline {section}{\numberline {7.4}Zenith Angle Quality Cuts and Energy-dependent Corrections}{98}{section.7.4}\protected@file@percent }
\@writefile{lof}{\contentsline {figure}{\numberline {7.10}{\ignorespaces $\langle \Delta X_{\text  {max,DNN-MC}} \rangle ${} vs\onedot  $\theta _\text  {SD,rec}${} with and without SSD data}}{98}{figure.caption.88}\protected@file@percent }
\newlabel{fig:bias_vs_Z}{{7.10}{98}{\delxmaxmu {} \vs \thetaSD {} with and without SSD data}{figure.caption.88}{}}
\newlabel{fig:bias_vs_Z@cref}{{[figure][10][7]7.10}{[1][98][]98}}
\@writefile{lof}{\contentsline {figure}{\numberline {7.11}{\ignorespaces Energy-dependent zenith dependence of $\langle \Delta X_{\text  {max,DNN-MC}} \rangle ${} with SSD data}}{99}{figure.caption.89}\protected@file@percent }
\newlabel{fig:bias_vs_Z_and_E}{{7.11}{99}{Energy-dependent zenith dependence of \delxmaxmu {} with SSD data}{figure.caption.89}{}}
\newlabel{fig:bias_vs_Z_and_E@cref}{{[figure][11][7]7.11}{[1][99][]99}}
\@writefile{lof}{\contentsline {figure}{\numberline {7.12}{\ignorespaces $2^\text  {nd}$ polynomial fit for energy-dependent zenith corrections}}{100}{figure.caption.90}\protected@file@percent }
\newlabel{fig:popt_vs_e}{{7.12}{100}{$2^\text {nd}$ polynomial fit for energy-dependent zenith corrections}{figure.caption.90}{}}
\newlabel{fig:popt_vs_e@cref}{{[figure][12][7]7.12}{[1][100][]100}}
\@writefile{lof}{\contentsline {figure}{\numberline {7.13}{\ignorespaces $\langle \Delta X_{\text  {max,DNN-MC}} \rangle ${} vs\onedot  $\theta _\text  {SD,rec}${} after corrections}}{101}{figure.caption.91}\protected@file@percent }
\newlabel{fig:bias_vs_Z_after_corr}{{7.13}{101}{\delxmaxmu {} \vs \thetaSD {} after corrections}{figure.caption.91}{}}
\newlabel{fig:bias_vs_Z_after_corr@cref}{{[figure][13][7]7.13}{[1][100][]101}}
\@writefile{lof}{\contentsline {figure}{\numberline {7.14}{\ignorespaces Correlation between $X_{\text  {max,MC}}${} and $X_{\text  {max,DNN}}${} after corrections}}{101}{figure.caption.92}\protected@file@percent }
\newlabel{fig:correlation_after_corr}{{7.14}{101}{Correlation between \xmaxmc {} and \xmaxdnn {} after corrections}{figure.caption.92}{}}
\newlabel{fig:correlation_after_corr@cref}{{[figure][14][7]7.14}{[1][101][]101}}
\@writefile{lof}{\contentsline {figure}{\numberline {7.15}{\ignorespaces $\langle \Delta X_{\text  {max,DNN-MC}} \rangle ${} and $\sigma \left (\Delta X_{\text  {max,DNN-MC}} \right )${} vs\onedot  $E_\text  {SD,rec}${} after corrections}}{102}{figure.caption.93}\protected@file@percent }
\newlabel{fig:bias_and_resolution_after_corr}{{7.15}{102}{\delxmaxmu {} and \delxmaxsigma {} \vs \ESD {} after corrections}{figure.caption.93}{}}
\newlabel{fig:bias_and_resolution_after_corr@cref}{{[figure][15][7]7.15}{[1][102][]102}}
\@writefile{toc}{\contentsline {section}{\numberline {7.5}Improvement with the Addition of SSD Data}{103}{section.7.5}\protected@file@percent }
\@writefile{lof}{\contentsline {figure}{\numberline {7.16}{\ignorespaces Model comparison of $M_\text  {SSD+WCD}${} and $M_\text  {WCD}${}}}{103}{figure.caption.94}\protected@file@percent }
\newlabel{fig:improvement_wSSD}{{7.16}{103}{Model comparison of \DNNSSD {} and \DNNWCD {}}{figure.caption.94}{}}
\newlabel{fig:improvement_wSSD@cref}{{[figure][16][7]7.16}{[1][103][]103}}
\@writefile{lof}{\contentsline {figure}{\numberline {7.17}{\ignorespaces Merit factor comparison of $M_\text  {SSD+WCD}${} and $M_\text  {WCD}${}}}{104}{figure.caption.95}\protected@file@percent }
\newlabel{fig:MoFos}{{7.17}{104}{Merit factor comparison of \DNNSSD {} and \DNNWCD {}}{figure.caption.95}{}}
\newlabel{fig:MoFos@cref}{{[figure][17][7]7.17}{[1][104][]104}}
\@setckpt{./chapters/07_DNN_Xmax_Reconstruction}{
\setcounter{page}{106}
\setcounter{equation}{13}
\setcounter{enumi}{2}
\setcounter{enumii}{0}
\setcounter{enumiii}{0}
\setcounter{enumiv}{0}
\setcounter{footnote}{1}
\setcounter{mpfootnote}{0}
\setcounter{part}{0}
\setcounter{chapter}{7}
\setcounter{section}{5}
\setcounter{subsection}{0}
\setcounter{subsubsection}{0}
\setcounter{paragraph}{0}
\setcounter{subparagraph}{0}
\setcounter{figure}{17}
\setcounter{table}{1}
\setcounter{Item}{12}
\setcounter{Hfootnote}{10}
\setcounter{bookmark@seq@number}{0}
\setcounter{caption@flags}{2}
\setcounter{continuedfloat}{0}
\setcounter{parentequation}{0}
\setcounter{LT@tables}{0}
\setcounter{LT@chunks}{0}
\setcounter{subfigure}{0}
\setcounter{subtable}{0}
\setcounter{lofdepth}{1}
\setcounter{lotdepth}{1}
\setcounter{float@type}{4}
\setcounter{tabx@nest}{0}
\setcounter{listtotal}{0}
\setcounter{listcount}{0}
\setcounter{liststart}{0}
\setcounter{liststop}{0}
\setcounter{citecount}{0}
\setcounter{citetotal}{0}
\setcounter{multicitecount}{0}
\setcounter{multicitetotal}{0}
\setcounter{instcount}{141}
\setcounter{maxnames}{3}
\setcounter{minnames}{1}
\setcounter{maxitems}{3}
\setcounter{minitems}{1}
\setcounter{citecounter}{0}
\setcounter{maxcitecounter}{0}
\setcounter{savedcitecounter}{0}
\setcounter{uniquelist}{0}
\setcounter{uniquename}{0}
\setcounter{refsection}{0}
\setcounter{refsegment}{0}
\setcounter{maxextratitle}{0}
\setcounter{maxextratitleyear}{0}
\setcounter{maxextraname}{8}
\setcounter{maxextradate}{0}
\setcounter{maxextraalpha}{0}
\setcounter{abbrvpenalty}{50}
\setcounter{highnamepenalty}{50}
\setcounter{lownamepenalty}{25}
\setcounter{maxparens}{3}
\setcounter{parenlevel}{0}
\setcounter{blx@maxsection}{0}
\setcounter{blx@maxsegment@0}{0}
\setcounter{blx@sectionciteorder@0}{121}
\setcounter{mincomprange}{10}
\setcounter{maxcomprange}{100000}
\setcounter{mincompwidth}{1}
\setcounter{afterword}{0}
\setcounter{savedafterword}{0}
\setcounter{annotator}{0}
\setcounter{savedannotator}{0}
\setcounter{author}{0}
\setcounter{savedauthor}{0}
\setcounter{bookauthor}{0}
\setcounter{savedbookauthor}{0}
\setcounter{commentator}{0}
\setcounter{savedcommentator}{0}
\setcounter{editor}{0}
\setcounter{savededitor}{0}
\setcounter{editora}{0}
\setcounter{savededitora}{0}
\setcounter{editorb}{0}
\setcounter{savededitorb}{0}
\setcounter{editorc}{0}
\setcounter{savededitorc}{0}
\setcounter{foreword}{0}
\setcounter{savedforeword}{0}
\setcounter{holder}{0}
\setcounter{savedholder}{0}
\setcounter{introduction}{0}
\setcounter{savedintroduction}{0}
\setcounter{namea}{0}
\setcounter{savednamea}{0}
\setcounter{nameb}{0}
\setcounter{savednameb}{0}
\setcounter{namec}{0}
\setcounter{savednamec}{0}
\setcounter{translator}{0}
\setcounter{savedtranslator}{0}
\setcounter{shortauthor}{0}
\setcounter{savedshortauthor}{0}
\setcounter{shorteditor}{0}
\setcounter{savedshorteditor}{0}
\setcounter{labelname}{0}
\setcounter{savedlabelname}{0}
\setcounter{institution}{0}
\setcounter{savedinstitution}{0}
\setcounter{lista}{0}
\setcounter{savedlista}{0}
\setcounter{listb}{0}
\setcounter{savedlistb}{0}
\setcounter{listc}{0}
\setcounter{savedlistc}{0}
\setcounter{listd}{0}
\setcounter{savedlistd}{0}
\setcounter{liste}{0}
\setcounter{savedliste}{0}
\setcounter{listf}{0}
\setcounter{savedlistf}{0}
\setcounter{location}{0}
\setcounter{savedlocation}{0}
\setcounter{organization}{0}
\setcounter{savedorganization}{0}
\setcounter{origlocation}{0}
\setcounter{savedoriglocation}{0}
\setcounter{origpublisher}{0}
\setcounter{savedorigpublisher}{0}
\setcounter{publisher}{0}
\setcounter{savedpublisher}{0}
\setcounter{language}{0}
\setcounter{savedlanguage}{0}
\setcounter{origlanguage}{0}
\setcounter{savedoriglanguage}{0}
\setcounter{pageref}{0}
\setcounter{savedpageref}{0}
\setcounter{textcitecount}{0}
\setcounter{textcitetotal}{0}
\setcounter{textcitemaxnames}{0}
\setcounter{biburlbigbreakpenalty}{100}
\setcounter{biburlbreakpenalty}{200}
\setcounter{biburlnumpenalty}{0}
\setcounter{biburlucpenalty}{0}
\setcounter{biburllcpenalty}{0}
\setcounter{smartand}{1}
\setcounter{bbx:relatedcount}{0}
\setcounter{bbx:relatedtotal}{0}
\setcounter{currfiledepth}{0}
\setcounter{su@anzahl}{0}
\setcounter{section@level}{1}
}
