\relax 
\providecommand\hyper@newdestlabel[2]{}
\@writefile{toc}{\defcounter {refsection}{0}\relax }\@writefile{toc}{\contentsline {chapter}{\numberline {5}ARTIFICIAL NEURAL NETWORKS \& DEEP LEARNING}{57}{chapter.5}\protected@file@percent }
\@writefile{lof}{\defcounter {refsection}{0}\relax }\@writefile{lof}{\addvspace {10\p@ }}
\@writefile{lot}{\defcounter {refsection}{0}\relax }\@writefile{lot}{\addvspace {10\p@ }}
\newlabel{chap:DL}{{5}{57}{ARTIFICIAL NEURAL NETWORKS \& DEEP LEARNING}{chapter.5}{}}
\newlabel{chap:DL@cref}{{[chapter][5][]5}{[1][57][]57}}
\@writefile{toc}{\defcounter {refsection}{0}\relax }\@writefile{toc}{\contentsline {section}{\numberline {5.1}Basic Components of a Neural Network}{57}{section.5.1}\protected@file@percent }
\newlabel{sec:activation}{{5.1}{57}{Basic Components of a Neural Network}{section.5.1}{}}
\newlabel{sec:activation@cref}{{[section][1][5]5.1}{[1][57][]57}}
\@writefile{lof}{\defcounter {refsection}{0}\relax }\@writefile{lof}{\contentsline {figure}{\numberline {5.1}{\ignorespaces Schematic of a fully connected neural network}}{58}{figure.caption.60}\protected@file@percent }
\newlabel{fig:perceptron}{{5.1}{58}{Schematic of a fully connected neural network}{figure.caption.60}{}}
\newlabel{fig:perceptron@cref}{{[figure][1][5]5.1}{[1][58][]58}}
\@writefile{lof}{\defcounter {refsection}{0}\relax }\@writefile{lof}{\contentsline {figure}{\numberline {5.2}{\ignorespaces Common non-linear activation functions}}{59}{figure.caption.61}\protected@file@percent }
\newlabel{fig:activationfunctions}{{5.2}{59}{Common non-linear activation functions}{figure.caption.61}{}}
\newlabel{fig:activationfunctions@cref}{{[figure][2][5]5.2}{[1][59][]59}}
\@writefile{toc}{\defcounter {refsection}{0}\relax }\@writefile{toc}{\contentsline {section}{\numberline {5.2}Initialization and Training of a Neural Network}{60}{section.5.2}\protected@file@percent }
\@writefile{toc}{\defcounter {refsection}{0}\relax }\@writefile{toc}{\contentsline {subsection}{\numberline {5.2.1}Data Set Splitting}{60}{subsection.5.2.1}\protected@file@percent }
\@writefile{toc}{\defcounter {refsection}{0}\relax }\@writefile{toc}{\contentsline {subsection}{\numberline {5.2.2}Global Parameters, Metric, and Weight/Bias Initialization}{61}{subsection.5.2.2}\protected@file@percent }
\newlabel{eq:weights}{{5.7}{61}{Global Parameters, Metric, and Weight/Bias Initialization}{equation.5.2.7}{}}
\newlabel{eq:weights@cref}{{[equation][7][5]5.7}{[1][61][]61}}
\@writefile{toc}{\defcounter {refsection}{0}\relax }\@writefile{toc}{\contentsline {subsection}{\numberline {5.2.3}Forward Propagation and Cost Calculation}{62}{subsection.5.2.3}\protected@file@percent }
\newlabel{sec:forwardcost}{{5.2.3}{62}{Forward Propagation and Cost Calculation}{subsection.5.2.3}{}}
\newlabel{sec:forwardcost@cref}{{[subsection][3][5,2]5.2.3}{[1][62][]62}}
\@writefile{lot}{\defcounter {refsection}{0}\relax }\@writefile{lot}{\contentsline {table}{\numberline {5.1}{\ignorespaces Comparison of cost functions}}{63}{table.caption.62}\protected@file@percent }
\newlabel{tab:cost}{{5.1}{63}{Comparison of cost functions}{table.caption.62}{}}
\newlabel{tab:cost@cref}{{[table][1][5]5.1}{[1][63][]63}}
\@writefile{toc}{\defcounter {refsection}{0}\relax }\@writefile{toc}{\contentsline {subsection}{\numberline {5.2.4}Back Propagation and Network Evaluation}{63}{subsection.5.2.4}\protected@file@percent }
\newlabel{sec:backwardeval}{{5.2.4}{63}{Back Propagation and Network Evaluation}{subsection.5.2.4}{}}
\newlabel{sec:backwardeval@cref}{{[subsection][4][5,2]5.2.4}{[1][63][]63}}
\newlabel{eq:adam_update}{{5.20}{65}{Back Propagation and Network Evaluation}{equation.5.2.20}{}}
\newlabel{eq:adam_update@cref}{{[equation][20][5]5.20}{[1][65][]65}}
\@writefile{toc}{\defcounter {refsection}{0}\relax }\@writefile{toc}{\contentsline {subsection}{\numberline {5.2.5}Combating Under- and Overtraining}{65}{subsection.5.2.5}\protected@file@percent }
\@writefile{lof}{\defcounter {refsection}{0}\relax }\@writefile{lof}{\contentsline {figure}{\numberline {5.3}{\ignorespaces Train and validation cost indicating under- and overtraining}}{66}{figure.caption.63}\protected@file@percent }
\newlabel{fig:overtraining}{{5.3}{66}{Train and validation cost indicating under- and overtraining}{figure.caption.63}{}}
\newlabel{fig:overtraining@cref}{{[figure][3][5]5.3}{[1][66][]66}}
\@writefile{lof}{\defcounter {refsection}{0}\relax }\@writefile{lof}{\contentsline {figure}{\numberline {5.4}{\ignorespaces Example of dropout in a neural network}}{67}{figure.caption.64}\protected@file@percent }
\newlabel{fig:dropout}{{5.4}{67}{Example of dropout in a neural network}{figure.caption.64}{}}
\newlabel{fig:dropout@cref}{{[figure][4][5]5.4}{[1][67][]67}}
\@writefile{toc}{\defcounter {refsection}{0}\relax }\@writefile{toc}{\contentsline {section}{\numberline {5.3}Convolutional Neural Networks}{68}{section.5.3}\protected@file@percent }
\newlabel{sec:general_convolution}{{5.3}{68}{Convolutional Neural Networks}{section.5.3}{}}
\newlabel{sec:general_convolution@cref}{{[section][3][5]5.3}{[1][67][]68}}
\@writefile{lof}{\defcounter {refsection}{0}\relax }\@writefile{lof}{\contentsline {figure}{\numberline {5.5}{\ignorespaces Convolutional filter application}}{68}{figure.caption.65}\protected@file@percent }
\newlabel{fig:convolution}{{5.5}{68}{Convolutional filter application}{figure.caption.65}{}}
\newlabel{fig:convolution@cref}{{[figure][5][5]5.5}{[1][68][]68}}
\@writefile{lof}{\defcounter {refsection}{0}\relax }\@writefile{lof}{\contentsline {figure}{\numberline {5.6}{\ignorespaces Convolution application on different channels}}{69}{figure.caption.66}\protected@file@percent }
\newlabel{fig:RGBconvolution}{{5.6}{69}{Convolution application on different channels}{figure.caption.66}{}}
\newlabel{fig:RGBconvolution@cref}{{[figure][6][5]5.6}{[1][69][]69}}
\@writefile{toc}{\defcounter {refsection}{0}\relax }\@writefile{toc}{\contentsline {subsection}{\numberline {5.3.1}Striding and Padding}{69}{subsection.5.3.1}\protected@file@percent }
\@writefile{lof}{\defcounter {refsection}{0}\relax }\@writefile{lof}{\contentsline {figure}{\numberline {5.7}{\ignorespaces Example of striding in a neural network}}{70}{figure.caption.67}\protected@file@percent }
\newlabel{fig:striding}{{5.7}{70}{Example of striding in a neural network}{figure.caption.67}{}}
\newlabel{fig:striding@cref}{{[figure][7][5]5.7}{[1][69][]70}}
\@writefile{lof}{\defcounter {refsection}{0}\relax }\@writefile{lof}{\contentsline {figure}{\numberline {5.8}{\ignorespaces Example of padding in a neural network}}{70}{figure.caption.68}\protected@file@percent }
\newlabel{fig:padding}{{5.8}{70}{Example of padding in a neural network}{figure.caption.68}{}}
\newlabel{fig:padding@cref}{{[figure][8][5]5.8}{[1][70][]70}}
\@writefile{toc}{\defcounter {refsection}{0}\relax }\@writefile{toc}{\contentsline {subsection}{\numberline {5.3.2}Cartesian Convolution}{70}{subsection.5.3.2}\protected@file@percent }
\@writefile{lof}{\defcounter {refsection}{0}\relax }\@writefile{lof}{\contentsline {figure}{\numberline {5.9}{\ignorespaces 1D, 2D and 3D Cartesian convolutions}}{71}{figure.caption.69}\protected@file@percent }
\newlabel{fig:1D2D3Dconvolution}{{5.9}{71}{1D, 2D and 3D Cartesian convolutions}{figure.caption.69}{}}
\newlabel{fig:1D2D3Dconvolution@cref}{{[figure][9][5]5.9}{[1][71][]71}}
\@writefile{toc}{\defcounter {refsection}{0}\relax }\@writefile{toc}{\contentsline {subsection}{\numberline {5.3.3}Hexagonal Convolution}{71}{subsection.5.3.3}\protected@file@percent }
\newlabel{sec:hexaconv}{{5.3.3}{71}{Hexagonal Convolution}{subsection.5.3.3}{}}
\newlabel{sec:hexaconv@cref}{{[subsection][3][5,3]5.3.3}{[1][71][]71}}
\@writefile{lof}{\defcounter {refsection}{0}\relax }\@writefile{lof}{\contentsline {figure}{\numberline {5.10}{\ignorespaces Axial layout for hexagonal convolutions}}{72}{figure.caption.70}\protected@file@percent }
\newlabel{fig:hex_layouts}{{5.10}{72}{Axial layout for hexagonal convolutions}{figure.caption.70}{}}
\newlabel{fig:hex_layouts@cref}{{[figure][10][5]5.10}{[1][71][]72}}
\@writefile{lof}{\defcounter {refsection}{0}\relax }\@writefile{lof}{\contentsline {figure}{\numberline {5.11}{\ignorespaces Example of a $p6$ group convolution for $\mathbb  {Z}^{2}$}}{72}{figure.caption.71}\protected@file@percent }
\newlabel{fig:Z2top6}{{5.11}{72}{Example of a $p6$ group convolution for $\mathbb {Z}^{2}$}{figure.caption.71}{}}
\newlabel{fig:Z2top6@cref}{{[figure][11][5]5.11}{[1][72][]72}}
\@writefile{toc}{\defcounter {refsection}{0}\relax }\@writefile{toc}{\contentsline {section}{\numberline {5.4}General Layer Types}{73}{section.5.4}\protected@file@percent }
\@writefile{toc}{\defcounter {refsection}{0}\relax }\@writefile{toc}{\contentsline {subsection}{\numberline {5.4.1}Pooling Layers}{73}{subsection.5.4.1}\protected@file@percent }
\@writefile{lof}{\defcounter {refsection}{0}\relax }\@writefile{lof}{\contentsline {figure}{\numberline {5.12}{\ignorespaces Example of pooling in a neural network}}{73}{figure.caption.72}\protected@file@percent }
\newlabel{fig:pooling}{{5.12}{73}{Example of pooling in a neural network}{figure.caption.72}{}}
\newlabel{fig:pooling@cref}{{[figure][12][5]5.12}{[1][73][]73}}
\@writefile{toc}{\defcounter {refsection}{0}\relax }\@writefile{toc}{\contentsline {subsection}{\numberline {5.4.2}Dense, Flatten, and Reshape Layers}{73}{subsection.5.4.2}\protected@file@percent }
\@setckpt{./chapters/04_ConvolutionalNeuralNetworks}{
\setcounter{page}{75}
\setcounter{equation}{26}
\setcounter{enumi}{3}
\setcounter{enumii}{0}
\setcounter{enumiii}{0}
\setcounter{enumiv}{0}
\setcounter{footnote}{2}
\setcounter{mpfootnote}{0}
\setcounter{part}{0}
\setcounter{chapter}{5}
\setcounter{section}{4}
\setcounter{subsection}{2}
\setcounter{subsubsection}{0}
\setcounter{paragraph}{0}
\setcounter{subparagraph}{0}
\setcounter{figure}{12}
\setcounter{table}{1}
\setcounter{Item}{10}
\setcounter{Hfootnote}{8}
\setcounter{bookmark@seq@number}{0}
\setcounter{caption@flags}{0}
\setcounter{continuedfloat}{0}
\setcounter{parentequation}{0}
\setcounter{LT@tables}{0}
\setcounter{LT@chunks}{0}
\setcounter{subfigure}{2}
\setcounter{subtable}{0}
\setcounter{lofdepth}{1}
\setcounter{lotdepth}{1}
\setcounter{float@type}{4}
\setcounter{tabx@nest}{0}
\setcounter{listtotal}{0}
\setcounter{listcount}{0}
\setcounter{liststart}{0}
\setcounter{liststop}{0}
\setcounter{citecount}{0}
\setcounter{citetotal}{0}
\setcounter{multicitecount}{0}
\setcounter{multicitetotal}{0}
\setcounter{instcount}{127}
\setcounter{maxnames}{3}
\setcounter{minnames}{1}
\setcounter{maxitems}{3}
\setcounter{minitems}{1}
\setcounter{citecounter}{0}
\setcounter{maxcitecounter}{0}
\setcounter{savedcitecounter}{0}
\setcounter{uniquelist}{0}
\setcounter{uniquename}{0}
\setcounter{refsection}{0}
\setcounter{refsegment}{0}
\setcounter{maxextratitle}{0}
\setcounter{maxextratitleyear}{0}
\setcounter{maxextraname}{8}
\setcounter{maxextradate}{0}
\setcounter{maxextraalpha}{0}
\setcounter{abbrvpenalty}{50}
\setcounter{highnamepenalty}{50}
\setcounter{lownamepenalty}{25}
\setcounter{maxparens}{3}
\setcounter{parenlevel}{0}
\setcounter{mincomprange}{10}
\setcounter{maxcomprange}{100000}
\setcounter{mincompwidth}{1}
\setcounter{afterword}{0}
\setcounter{savedafterword}{0}
\setcounter{annotator}{0}
\setcounter{savedannotator}{0}
\setcounter{author}{0}
\setcounter{savedauthor}{0}
\setcounter{bookauthor}{0}
\setcounter{savedbookauthor}{0}
\setcounter{commentator}{0}
\setcounter{savedcommentator}{0}
\setcounter{editor}{0}
\setcounter{savededitor}{0}
\setcounter{editora}{0}
\setcounter{savededitora}{0}
\setcounter{editorb}{0}
\setcounter{savededitorb}{0}
\setcounter{editorc}{0}
\setcounter{savededitorc}{0}
\setcounter{foreword}{0}
\setcounter{savedforeword}{0}
\setcounter{holder}{0}
\setcounter{savedholder}{0}
\setcounter{introduction}{0}
\setcounter{savedintroduction}{0}
\setcounter{namea}{0}
\setcounter{savednamea}{0}
\setcounter{nameb}{0}
\setcounter{savednameb}{0}
\setcounter{namec}{0}
\setcounter{savednamec}{0}
\setcounter{translator}{0}
\setcounter{savedtranslator}{0}
\setcounter{shortauthor}{0}
\setcounter{savedshortauthor}{0}
\setcounter{shorteditor}{0}
\setcounter{savedshorteditor}{0}
\setcounter{labelname}{0}
\setcounter{savedlabelname}{0}
\setcounter{institution}{0}
\setcounter{savedinstitution}{0}
\setcounter{lista}{0}
\setcounter{savedlista}{0}
\setcounter{listb}{0}
\setcounter{savedlistb}{0}
\setcounter{listc}{0}
\setcounter{savedlistc}{0}
\setcounter{listd}{0}
\setcounter{savedlistd}{0}
\setcounter{liste}{0}
\setcounter{savedliste}{0}
\setcounter{listf}{0}
\setcounter{savedlistf}{0}
\setcounter{location}{0}
\setcounter{savedlocation}{0}
\setcounter{organization}{0}
\setcounter{savedorganization}{0}
\setcounter{origlocation}{0}
\setcounter{savedoriglocation}{0}
\setcounter{origpublisher}{0}
\setcounter{savedorigpublisher}{0}
\setcounter{publisher}{0}
\setcounter{savedpublisher}{0}
\setcounter{language}{0}
\setcounter{savedlanguage}{0}
\setcounter{origlanguage}{0}
\setcounter{savedoriglanguage}{0}
\setcounter{pageref}{0}
\setcounter{savedpageref}{0}
\setcounter{textcitecount}{0}
\setcounter{textcitetotal}{0}
\setcounter{textcitemaxnames}{0}
\setcounter{biburlbigbreakpenalty}{100}
\setcounter{biburlbreakpenalty}{200}
\setcounter{biburlnumpenalty}{0}
\setcounter{biburlucpenalty}{0}
\setcounter{biburllcpenalty}{0}
\setcounter{smartand}{1}
\setcounter{bbx:relatedcount}{0}
\setcounter{bbx:relatedtotal}{0}
\setcounter{currfiledepth}{0}
\setcounter{su@anzahl}{0}
\setcounter{section@level}{2}
}
