\relax 
\providecommand\hyper@newdestlabel[2]{}
\@writefile{toc}{\defcounter {refsection}{0}\relax }\@writefile{toc}{\contentsline {chapter}{\numberline {4}FIRST ANALYSES OF ENGINEERING ARRAY DATA}{35}{chapter.4}\protected@file@percent }
\@writefile{lof}{\defcounter {refsection}{0}\relax }\@writefile{lof}{\addvspace {10\p@ }}
\@writefile{lot}{\defcounter {refsection}{0}\relax }\@writefile{lot}{\addvspace {10\p@ }}
\newlabel{chap:EAData}{{4}{35}{FIRST ANALYSES OF ENGINEERING ARRAY DATA}{chapter.4}{}}
\newlabel{chap:EAData@cref}{{[chapter][4][]4}{[1][35][]35}}
\@writefile{toc}{\defcounter {refsection}{0}\relax }\@writefile{toc}{\contentsline {section}{\numberline {4.1}Engineering Array Layout}{35}{section.4.1}\protected@file@percent }
\@writefile{lof}{\defcounter {refsection}{0}\relax }\@writefile{lof}{\contentsline {figure}{\numberline {4.1}{\ignorespaces AugerPrime EA layout}}{36}{figure.caption.30}\protected@file@percent }
\newlabel{fig:SSD-EA}{{4.1}{36}{AugerPrime EA layout}{figure.caption.30}{}}
\newlabel{fig:SSD-EA@cref}{{[figure][1][4]4.1}{[1][35][]36}}
\@writefile{toc}{\defcounter {refsection}{0}\relax }\@writefile{toc}{\contentsline {section}{\numberline {4.2}$\text  {SD}_{433}$ Reconstruction and HV Stability}{36}{section.4.2}\protected@file@percent }
\@writefile{lof}{\defcounter {refsection}{0}\relax }\@writefile{lof}{\contentsline {figure}{\numberline {4.2}{\ignorespaces Layout of SD-433 array and SSD EA triplet}}{36}{figure.caption.31}\protected@file@percent }
\newlabel{fig:SD-433}{{4.2}{36}{Layout of SD-433 array and SSD EA triplet}{figure.caption.31}{}}
\newlabel{fig:SD-433@cref}{{[figure][2][4]4.2}{[1][36][]36}}
\@writefile{lof}{\defcounter {refsection}{0}\relax }\@writefile{lof}{\contentsline {figure}{\numberline {4.3}{\ignorespaces SSD EA HV vs\onedot  . time}}{37}{figure.caption.32}\protected@file@percent }
\newlabel{fig:HVSettings}{{4.3}{37}{SSD EA HV \vs . time}{figure.caption.32}{}}
\newlabel{fig:HVSettings@cref}{{[figure][3][4]4.3}{[1][37][]37}}
\@writefile{lot}{\defcounter {refsection}{0}\relax }\@writefile{lot}{\contentsline {table}{\numberline {4.1}{\ignorespaces Time periods with stable HV}}{38}{table.caption.33}\protected@file@percent }
\newlabel{tab:HVperiod}{{4.1}{38}{Time periods with stable HV}{table.caption.33}{}}
\newlabel{tab:HVperiod@cref}{{[table][1][4]4.1}{[1][38][]38}}
\@writefile{lof}{\defcounter {refsection}{0}\relax }\@writefile{lof}{\contentsline {figure}{\numberline {4.4}{\ignorespaces Distribution of SD-433 reconstructed energy and zenith}}{38}{figure.caption.34}\protected@file@percent }
\newlabel{fig:E_Theta_Dist}{{4.4}{38}{Distribution of SD-433 reconstructed energy and zenith}{figure.caption.34}{}}
\newlabel{fig:E_Theta_Dist@cref}{{[figure][4][4]4.4}{[1][38][]38}}
\@writefile{lof}{\defcounter {refsection}{0}\relax }\@writefile{lof}{\contentsline {figure}{\numberline {4.5}{\ignorespaces Distribution of SD-433 reconstructed shower cores}}{39}{figure.caption.35}\protected@file@percent }
\newlabel{fig:CoreDist}{{4.5}{39}{Distribution of SD-433 reconstructed shower cores}{figure.caption.35}{}}
\newlabel{fig:CoreDist@cref}{{[figure][5][4]4.5}{[1][38][]39}}
\@writefile{toc}{\defcounter {refsection}{0}\relax }\@writefile{toc}{\contentsline {section}{\numberline {4.3}Charge Estimation of SSD Data and Correlation between Twin Stations}{40}{section.4.3}\protected@file@percent }
\newlabel{sec:charge}{{4.3}{40}{Charge Estimation of SSD Data and Correlation between Twin Stations}{section.4.3}{}}
\newlabel{sec:charge@cref}{{[section][3][4]4.3}{[1][40][]40}}
\@writefile{lof}{\defcounter {refsection}{0}\relax }\@writefile{lof}{\contentsline {figure}{\numberline {4.6}{\ignorespaces Comparison of HG and LG SSD and WCD signal traces}}{40}{figure.caption.36}\protected@file@percent }
\newlabel{fig:Ex_trace}{{4.6}{40}{Comparison of HG and LG SSD and WCD signal traces}{figure.caption.36}{}}
\newlabel{fig:Ex_trace@cref}{{[figure][6][4]4.6}{[1][40][]40}}
\@writefile{lof}{\defcounter {refsection}{0}\relax }\@writefile{lof}{\contentsline {figure}{\numberline {4.7}{\ignorespaces Charge correlation between EA twin stations}}{41}{figure.caption.37}\protected@file@percent }
\newlabel{fig:Q_corr}{{4.7}{41}{Charge correlation between EA twin stations}{figure.caption.37}{}}
\newlabel{fig:Q_corr@cref}{{[figure][7][4]4.7}{[1][41][]41}}
\@writefile{lof}{\defcounter {refsection}{0}\relax }\@writefile{lof}{\contentsline {figure}{\numberline {4.8}{\ignorespaces Distribution of SD-433 reconstructed shower cores with distance cut}}{42}{figure.caption.38}\protected@file@percent }
\newlabel{fig:CoreReco_cut}{{4.8}{42}{Distribution of SD-433 reconstructed shower cores with distance cut}{figure.caption.38}{}}
\newlabel{fig:CoreReco_cut@cref}{{[figure][8][4]4.8}{[1][42][]42}}
\newlabel{eq:distance_cut}{{4.1}{42}{Charge Estimation of SSD Data and Correlation between Twin Stations}{equation.4.3.1}{}}
\newlabel{eq:distance_cut@cref}{{[equation][1][4]4.1}{[1][42][]42}}
\@writefile{toc}{\defcounter {refsection}{0}\relax }\@writefile{toc}{\contentsline {section}{\numberline {4.4}Estimated Charge vs\onedot  Distance to Shower Core/Zenith Angle}{43}{section.4.4}\protected@file@percent }
\@writefile{lof}{\defcounter {refsection}{0}\relax }\@writefile{lof}{\contentsline {figure}{\numberline {4.9}{\ignorespaces Estimated weighted charge vs\onedot  distance to shower core}}{43}{figure.caption.39}\protected@file@percent }
\newlabel{fig:QER}{{4.9}{43}{Estimated weighted charge \vs distance to shower core}{figure.caption.39}{}}
\newlabel{fig:QER@cref}{{[figure][9][4]4.9}{[1][43][]43}}
\@writefile{lof}{\defcounter {refsection}{0}\relax }\@writefile{lof}{\contentsline {figure}{\numberline {4.10}{\ignorespaces Estimated weighted charge vs\onedot  zenith angle}}{43}{figure.caption.40}\protected@file@percent }
\newlabel{fig:QETh}{{4.10}{43}{Estimated weighted charge \vs zenith angle}{figure.caption.40}{}}
\newlabel{fig:QETh@cref}{{[figure][10][4]4.10}{[1][43][]43}}
\@writefile{toc}{\defcounter {refsection}{0}\relax }\@writefile{toc}{\contentsline {section}{\numberline {4.5}Timing Resolution of the SSD}{44}{section.4.5}\protected@file@percent }
\newlabel{sec:timing}{{4.5}{44}{Timing Resolution of the SSD}{section.4.5}{}}
\newlabel{sec:timing@cref}{{[section][5][4]4.5}{[1][44][]44}}
\@writefile{toc}{\defcounter {refsection}{0}\relax }\@writefile{toc}{\contentsline {subsection}{\numberline {4.5.1}Timing Analysis without Shower Direction Correction}{44}{subsection.4.5.1}\protected@file@percent }
\newlabel{eq:theo_time}{{4.2}{45}{Timing Analysis without Shower Direction Correction}{equation.4.5.2}{}}
\newlabel{eq:theo_time@cref}{{[equation][2][4]4.2}{[1][44][]45}}
\@writefile{lot}{\defcounter {refsection}{0}\relax }\@writefile{lot}{\contentsline {table}{\numberline {4.2}{\ignorespaces Timing resolution of station pairs}}{45}{table.caption.41}\protected@file@percent }
\newlabel{tab:timing_results_woCorrection}{{4.2}{45}{Timing resolution of station pairs}{table.caption.41}{}}
\newlabel{tab:timing_results_woCorrection@cref}{{[table][2][4]4.2}{[1][45][]45}}
\@writefile{toc}{\defcounter {refsection}{0}\relax }\@writefile{toc}{\contentsline {subsection}{\numberline {4.5.2}Timing Analysis with Shower Direction Correction}{45}{subsection.4.5.2}\protected@file@percent }
\newlabel{sec:GPS_UUBV1}{{4.5.2}{45}{Timing Analysis with Shower Direction Correction}{subsection.4.5.2}{}}
\newlabel{sec:GPS_UUBV1@cref}{{[subsection][2][4,5]4.5.2}{[1][45][]45}}
\@writefile{lof}{\defcounter {refsection}{0}\relax }\@writefile{lof}{\contentsline {figure}{\numberline {4.11}{\ignorespaces Gauss-fit to $\Delta t$'s for EA stations 20 and 39}}{46}{figure.caption.42}\protected@file@percent }
\newlabel{fig:st20-39_befandaft}{{4.11}{46}{Gauss-fit to $\Delta t$'s for EA stations 20 and 39}{figure.caption.42}{}}
\newlabel{fig:st20-39_befandaft@cref}{{[figure][11][4]4.11}{[1][46][]46}}
\@writefile{lot}{\defcounter {refsection}{0}\relax }\@writefile{lot}{\contentsline {table}{\numberline {4.3}{\ignorespaces Timing resolution of station pairs after correcting for $\Delta t_\mathrm  {exp}$}}{46}{table.caption.43}\protected@file@percent }
\newlabel{tab:timing_results_wCorrection}{{4.3}{46}{Timing resolution of station pairs after correcting for $\Delta t_\mathrm {exp}$}{table.caption.43}{}}
\newlabel{tab:timing_results_wCorrection@cref}{{[table][3][4]4.3}{[1][46][]46}}
\@writefile{lof}{\defcounter {refsection}{0}\relax }\@writefile{lof}{\contentsline {figure}{\numberline {4.12}{\ignorespaces Azimuth angle vs\onedot  $\Delta t$'s for EA stations 20 and 39}}{47}{figure.caption.44}\protected@file@percent }
\newlabel{fig:exp-vs-gps_2039}{{4.12}{47}{Azimuth angle \vs $\Delta t$'s for EA stations 20 and 39}{figure.caption.44}{}}
\newlabel{fig:exp-vs-gps_2039@cref}{{[figure][12][4]4.12}{[1][46][]47}}
\@writefile{toc}{\defcounter {refsection}{0}\relax }\@writefile{toc}{\contentsline {subsection}{\numberline {4.5.3}Timing Analysis during Full-Bandwidth Trigger Period}{47}{subsection.4.5.3}\protected@file@percent }
\newlabel{sec:FBtrigger}{{4.5.3}{47}{Timing Analysis during Full-Bandwidth Trigger Period}{subsection.4.5.3}{}}
\newlabel{sec:FBtrigger@cref}{{[subsection][3][4,5]4.5.3}{[1][46][]47}}
\@writefile{lot}{\defcounter {refsection}{0}\relax }\@writefile{lot}{\contentsline {table}{\numberline {4.4}{\ignorespaces Timing resolution of station pairs in full-bandwidth mode}}{48}{table.caption.45}\protected@file@percent }
\newlabel{tab:timing_results_FB}{{4.4}{48}{Timing resolution of station pairs in full-bandwidth mode}{table.caption.45}{}}
\newlabel{tab:timing_results_FB@cref}{{[table][4][4]4.4}{[1][47][]48}}
\@writefile{lof}{\defcounter {refsection}{0}\relax }\@writefile{lof}{\contentsline {figure}{\numberline {4.13}{\ignorespaces Gauss-fit to $\Delta t$'s for EA stations 20 and 39 during FB trigger period}}{48}{figure.caption.46}\protected@file@percent }
\newlabel{fig:fb_trigger_20-39}{{4.13}{48}{Gauss-fit to $\Delta t$'s for EA stations 20 and 39 during FB trigger period}{figure.caption.46}{}}
\newlabel{fig:fb_trigger_20-39@cref}{{[figure][13][4]4.13}{[1][47][]48}}
\@writefile{toc}{\defcounter {refsection}{0}\relax }\@writefile{toc}{\contentsline {subsection}{\numberline {4.5.4}Timing Analysis after switch of GPS module}{48}{subsection.4.5.4}\protected@file@percent }
\newlabel{sec:GPS_UUBV2}{{4.5.4}{48}{Timing Analysis after switch of GPS module}{subsection.4.5.4}{}}
\newlabel{sec:GPS_UUBV2@cref}{{[subsection][4][4,5]4.5.4}{[1][48][]48}}
\@writefile{lof}{\defcounter {refsection}{0}\relax }\@writefile{lof}{\contentsline {figure}{\numberline {4.14}{\ignorespaces Gauss-fit to $\Delta t$'s for EA stations 20 and 39 with new GPS module}}{49}{figure.caption.47}\protected@file@percent }
\newlabel{fig:gps_rec_20-39}{{4.14}{49}{Gauss-fit to $\Delta t$'s for EA stations 20 and 39 with new GPS module}{figure.caption.47}{}}
\newlabel{fig:gps_rec_20-39@cref}{{[figure][14][4]4.14}{[1][49][]49}}
\@writefile{lot}{\defcounter {refsection}{0}\relax }\@writefile{lot}{\contentsline {table}{\numberline {4.5}{\ignorespaces Timing resolution of station pairs with new GPS receiver}}{49}{table.caption.48}\protected@file@percent }
\newlabel{tab:timing_results}{{4.5}{49}{Timing resolution of station pairs with new GPS receiver}{table.caption.48}{}}
\newlabel{tab:timing_results@cref}{{[table][5][4]4.5}{[1][49][]49}}
\@writefile{toc}{\defcounter {refsection}{0}\relax }\@writefile{toc}{\contentsline {subsection}{\numberline {4.5.5}Cut on Signal Size and Analysis of the Signal Start Time}{49}{subsection.4.5.5}\protected@file@percent }
\@writefile{lof}{\defcounter {refsection}{0}\relax }\@writefile{lof}{\contentsline {figure}{\numberline {4.15}{\ignorespaces Precision of $\Delta t$ with varying signal cut strength}}{50}{figure.caption.49}\protected@file@percent }
\newlabel{fig:cut_20-39}{{4.15}{50}{Precision of $\Delta t$ with varying signal cut strength}{figure.caption.49}{}}
\newlabel{fig:cut_20-39@cref}{{[figure][15][4]4.15}{[1][50][]50}}
\@writefile{lof}{\defcounter {refsection}{0}\relax }\@writefile{lof}{\contentsline {figure}{\numberline {4.16}{\ignorespaces Signal start bin distributions of station 20 and 39}}{50}{figure.caption.50}\protected@file@percent }
\newlabel{fig:risetime_calc}{{4.16}{50}{Signal start bin distributions of station 20 and 39}{figure.caption.50}{}}
\newlabel{fig:risetime_calc@cref}{{[figure][16][4]4.16}{[1][50][]50}}
\@writefile{lof}{\defcounter {refsection}{0}\relax }\@writefile{lof}{\contentsline {figure}{\numberline {4.17}{\ignorespaces $\Delta t$'s for EA stations 20 and 39 when accounting for signal start bin}}{51}{figure.caption.51}\protected@file@percent }
\newlabel{fig:risetime_diff}{{4.17}{51}{$\Delta t$'s for EA stations 20 and 39 when accounting for signal start bin}{figure.caption.51}{}}
\newlabel{fig:risetime_diff@cref}{{[figure][17][4]4.17}{[1][51][]51}}
\@writefile{toc}{\defcounter {refsection}{0}\relax }\@writefile{toc}{\contentsline {section}{\numberline {4.6}Annual Variation of SSD PMT Temperature}{51}{section.4.6}\protected@file@percent }
\newlabel{sec:temp}{{4.6}{51}{Annual Variation of SSD PMT Temperature}{section.4.6}{}}
\newlabel{sec:temp@cref}{{[section][6][4]4.6}{[1][51][]51}}
\@writefile{lof}{\defcounter {refsection}{0}\relax }\@writefile{lof}{\contentsline {figure}{\numberline {4.18}{\ignorespaces SSD Temperature vs\onedot  time}}{51}{figure.caption.52}\protected@file@percent }
\newlabel{fig:SSDPMTTemp}{{4.18}{51}{SSD Temperature \vs time}{figure.caption.52}{}}
\newlabel{fig:SSDPMTTemp@cref}{{[figure][18][4]4.18}{[1][51][]51}}
\@writefile{toc}{\defcounter {refsection}{0}\relax }\@writefile{toc}{\contentsline {section}{\numberline {4.7}MIP Peak Stability vs\onedot  Time/Temperature}{52}{section.4.7}\protected@file@percent }
\newlabel{sec:MIP}{{4.7}{52}{MIP Peak Stability \vs Time/Temperature}{section.4.7}{}}
\newlabel{sec:MIP@cref}{{[section][7][4]4.7}{[1][52][]52}}
\@writefile{lof}{\defcounter {refsection}{0}\relax }\@writefile{lof}{\contentsline {figure}{\numberline {4.19}{\ignorespaces Calculation of MIP peak from charge histogram}}{52}{figure.caption.53}\protected@file@percent }
\newlabel{fig:ChargeHist}{{4.19}{52}{Calculation of MIP peak from charge histogram}{figure.caption.53}{}}
\newlabel{fig:ChargeHist@cref}{{[figure][19][4]4.19}{[1][52][]52}}
\@writefile{lof}{\defcounter {refsection}{0}\relax }\@writefile{lof}{\contentsline {figure}{\numberline {4.20}{\ignorespaces MIP peaks vs\onedot  time}}{53}{figure.caption.54}\protected@file@percent }
\newlabel{fig:MIPvsTime}{{4.20}{53}{MIP peaks \vs time}{figure.caption.54}{}}
\newlabel{fig:MIPvsTime@cref}{{[figure][20][4]4.20}{[1][53][]53}}
\@writefile{lof}{\defcounter {refsection}{0}\relax }\@writefile{lof}{\contentsline {figure}{\numberline {4.21}{\ignorespaces MIP and PMT temperature correlation for station 20}}{53}{figure.caption.55}\protected@file@percent }
\newlabel{fig:MIPvsTemp20}{{4.21}{53}{MIP and PMT temperature correlation for station 20}{figure.caption.55}{}}
\newlabel{fig:MIPvsTemp20@cref}{{[figure][21][4]4.21}{[1][53][]53}}
\@writefile{lot}{\defcounter {refsection}{0}\relax }\@writefile{lot}{\contentsline {table}{\numberline {4.6}{\ignorespaces MIP-temperature correlation fit results for station 20 and 22}}{54}{table.caption.56}\protected@file@percent }
\newlabel{tab:MIPTempFits}{{4.6}{54}{MIP-temperature correlation fit results for station 20 and 22}{table.caption.56}{}}
\newlabel{tab:MIPTempFits@cref}{{[table][6][4]4.6}{[1][53][]54}}
\@writefile{toc}{\defcounter {refsection}{0}\relax }\@writefile{toc}{\contentsline {section}{\numberline {4.8}Trace Baseline Stability}{54}{section.4.8}\protected@file@percent }
\@writefile{lof}{\defcounter {refsection}{0}\relax }\@writefile{lof}{\contentsline {figure}{\numberline {4.22}{\ignorespaces Baseline vs\onedot  time for station 20 with UUB V1 and V2}}{54}{figure.caption.57}\protected@file@percent }
\newlabel{fig:BaseTimeUUBV1}{{4.22}{54}{Baseline \vs time for station 20 with UUB V1 and V2}{figure.caption.57}{}}
\newlabel{fig:BaseTimeUUBV1@cref}{{[figure][22][4]4.22}{[1][54][]54}}
\@writefile{lof}{\defcounter {refsection}{0}\relax }\@writefile{lof}{\contentsline {figure}{\numberline {4.23}{\ignorespaces Baseline-temperature correlations for station 20 with UUB V1 and V2}}{55}{figure.caption.58}\protected@file@percent }
\newlabel{fig:BaselinevsTemp20}{{4.23}{55}{Baseline-temperature correlations for station 20 with UUB V1 and V2}{figure.caption.58}{}}
\newlabel{fig:BaselinevsTemp20@cref}{{[figure][23][4]4.23}{[1][55][]55}}
\@writefile{lot}{\defcounter {refsection}{0}\relax }\@writefile{lot}{\contentsline {table}{\numberline {4.7}{\ignorespaces Baseline-temperature correlation fit results for station 20 and 22}}{55}{table.caption.59}\protected@file@percent }
\newlabel{tab:BaseTempFits}{{4.7}{55}{Baseline-temperature correlation fit results for station 20 and 22}{table.caption.59}{}}
\newlabel{tab:BaseTempFits@cref}{{[table][7][4]4.7}{[1][55][]55}}
\@writefile{toc}{\defcounter {refsection}{0}\relax }\@writefile{toc}{\contentsline {section}{\numberline {4.9}Conclusions from the EA Analysis}{56}{section.4.9}\protected@file@percent }
\@setckpt{./chapters/05_FirstAnalysisOfEAData}{
\setcounter{page}{57}
\setcounter{equation}{13}
\setcounter{enumi}{5}
\setcounter{enumii}{0}
\setcounter{enumiii}{0}
\setcounter{enumiv}{0}
\setcounter{footnote}{4}
\setcounter{mpfootnote}{0}
\setcounter{part}{0}
\setcounter{chapter}{4}
\setcounter{section}{9}
\setcounter{subsection}{0}
\setcounter{subsubsection}{0}
\setcounter{paragraph}{0}
\setcounter{subparagraph}{0}
\setcounter{figure}{23}
\setcounter{table}{7}
\setcounter{Item}{5}
\setcounter{Hfootnote}{6}
\setcounter{bookmark@seq@number}{0}
\setcounter{caption@flags}{2}
\setcounter{continuedfloat}{0}
\setcounter{parentequation}{0}
\setcounter{LT@tables}{0}
\setcounter{LT@chunks}{0}
\setcounter{subfigure}{0}
\setcounter{subtable}{0}
\setcounter{lofdepth}{1}
\setcounter{lotdepth}{1}
\setcounter{float@type}{4}
\setcounter{tabx@nest}{0}
\setcounter{listtotal}{0}
\setcounter{listcount}{0}
\setcounter{liststart}{0}
\setcounter{liststop}{0}
\setcounter{citecount}{0}
\setcounter{citetotal}{0}
\setcounter{multicitecount}{0}
\setcounter{multicitetotal}{0}
\setcounter{instcount}{107}
\setcounter{maxnames}{3}
\setcounter{minnames}{1}
\setcounter{maxitems}{3}
\setcounter{minitems}{1}
\setcounter{citecounter}{0}
\setcounter{maxcitecounter}{0}
\setcounter{savedcitecounter}{0}
\setcounter{uniquelist}{0}
\setcounter{uniquename}{0}
\setcounter{refsection}{0}
\setcounter{refsegment}{0}
\setcounter{maxextratitle}{0}
\setcounter{maxextratitleyear}{0}
\setcounter{maxextraname}{8}
\setcounter{maxextradate}{0}
\setcounter{maxextraalpha}{0}
\setcounter{abbrvpenalty}{50}
\setcounter{highnamepenalty}{50}
\setcounter{lownamepenalty}{25}
\setcounter{maxparens}{3}
\setcounter{parenlevel}{0}
\setcounter{mincomprange}{10}
\setcounter{maxcomprange}{100000}
\setcounter{mincompwidth}{1}
\setcounter{afterword}{0}
\setcounter{savedafterword}{0}
\setcounter{annotator}{0}
\setcounter{savedannotator}{0}
\setcounter{author}{0}
\setcounter{savedauthor}{0}
\setcounter{bookauthor}{0}
\setcounter{savedbookauthor}{0}
\setcounter{commentator}{0}
\setcounter{savedcommentator}{0}
\setcounter{editor}{0}
\setcounter{savededitor}{0}
\setcounter{editora}{0}
\setcounter{savededitora}{0}
\setcounter{editorb}{0}
\setcounter{savededitorb}{0}
\setcounter{editorc}{0}
\setcounter{savededitorc}{0}
\setcounter{foreword}{0}
\setcounter{savedforeword}{0}
\setcounter{holder}{0}
\setcounter{savedholder}{0}
\setcounter{introduction}{0}
\setcounter{savedintroduction}{0}
\setcounter{namea}{0}
\setcounter{savednamea}{0}
\setcounter{nameb}{0}
\setcounter{savednameb}{0}
\setcounter{namec}{0}
\setcounter{savednamec}{0}
\setcounter{translator}{0}
\setcounter{savedtranslator}{0}
\setcounter{shortauthor}{0}
\setcounter{savedshortauthor}{0}
\setcounter{shorteditor}{0}
\setcounter{savedshorteditor}{0}
\setcounter{labelname}{0}
\setcounter{savedlabelname}{0}
\setcounter{institution}{0}
\setcounter{savedinstitution}{0}
\setcounter{lista}{0}
\setcounter{savedlista}{0}
\setcounter{listb}{0}
\setcounter{savedlistb}{0}
\setcounter{listc}{0}
\setcounter{savedlistc}{0}
\setcounter{listd}{0}
\setcounter{savedlistd}{0}
\setcounter{liste}{0}
\setcounter{savedliste}{0}
\setcounter{listf}{0}
\setcounter{savedlistf}{0}
\setcounter{location}{0}
\setcounter{savedlocation}{0}
\setcounter{organization}{0}
\setcounter{savedorganization}{0}
\setcounter{origlocation}{0}
\setcounter{savedoriglocation}{0}
\setcounter{origpublisher}{0}
\setcounter{savedorigpublisher}{0}
\setcounter{publisher}{0}
\setcounter{savedpublisher}{0}
\setcounter{language}{0}
\setcounter{savedlanguage}{0}
\setcounter{origlanguage}{0}
\setcounter{savedoriglanguage}{0}
\setcounter{pageref}{0}
\setcounter{savedpageref}{0}
\setcounter{textcitecount}{0}
\setcounter{textcitetotal}{0}
\setcounter{textcitemaxnames}{0}
\setcounter{biburlbigbreakpenalty}{100}
\setcounter{biburlbreakpenalty}{200}
\setcounter{biburlnumpenalty}{0}
\setcounter{biburlucpenalty}{0}
\setcounter{biburllcpenalty}{0}
\setcounter{smartand}{1}
\setcounter{bbx:relatedcount}{0}
\setcounter{bbx:relatedtotal}{0}
\setcounter{currfiledepth}{0}
\setcounter{su@anzahl}{0}
\setcounter{section@level}{1}
}
