\relax 
\providecommand\hyper@newdestlabel[2]{}
\@writefile{toc}{\defcounter {refsection}{0}\relax }\@writefile{toc}{\contentsline {chapter}{\numberline {6}SIMULATION SETTINGS AND PRE-PROCESSING}{75}{chapter.6}\protected@file@percent }
\@writefile{lof}{\defcounter {refsection}{0}\relax }\@writefile{lof}{\addvspace {10\p@ }}
\@writefile{lot}{\defcounter {refsection}{0}\relax }\@writefile{lot}{\addvspace {10\p@ }}
\newlabel{chap:PrePro}{{6}{75}{SIMULATION SETTINGS AND PRE-PROCESSING}{chapter.6}{}}
\newlabel{chap:PrePro@cref}{{[chapter][6][]6}{[1][75][]75}}
\@writefile{toc}{\defcounter {refsection}{0}\relax }\@writefile{toc}{\contentsline {section}{\numberline {6.1}CORSIKA Simulation Setup}{75}{section.6.1}\protected@file@percent }
\@writefile{toc}{\defcounter {refsection}{0}\relax }\@writefile{toc}{\contentsline {section}{\numberline {6.2}AugerPrime Simulation and Reconstruction}{76}{section.6.2}\protected@file@percent }
\@writefile{toc}{\defcounter {refsection}{0}\relax }\@writefile{toc}{\contentsline {section}{\numberline {6.3}Pre-processing Detector Simulations with Python}{77}{section.6.3}\protected@file@percent }
\@writefile{toc}{\defcounter {refsection}{0}\relax }\@writefile{toc}{\contentsline {subsection}{\numberline {6.3.1}Parameter Selections and Read-out}{77}{subsection.6.3.1}\protected@file@percent }
\@writefile{lof}{\defcounter {refsection}{0}\relax }\@writefile{lof}{\contentsline {figure}{\numberline {6.1}{\ignorespaces Energy, Zenith, and $X_{\text  {max}}${} distributions of full data-set}}{78}{figure.caption.73}\protected@file@percent }
\newlabel{fig:dataset_dists}{{6.1}{78}{Energy, Zenith, and \xmax {} distributions of full data-set}{figure.caption.73}{}}
\newlabel{fig:dataset_dists@cref}{{[figure][1][6]6.1}{[1][77][]78}}
\@writefile{toc}{\defcounter {refsection}{0}\relax }\@writefile{toc}{\contentsline {subsection}{\numberline {6.3.2}Data Augmentation and Elongation Rate Correction}{78}{subsection.6.3.2}\protected@file@percent }
\newlabel{sec:data-augmentation}{{6.3.2}{78}{Data Augmentation and Elongation Rate Correction}{subsection.6.3.2}{}}
\newlabel{sec:data-augmentation@cref}{{[subsection][2][6,3]6.3.2}{[1][78][]78}}
\newlabel{eq:elongation-rate}{{6.1}{79}{Data Augmentation and Elongation Rate Correction}{equation.6.3.1}{}}
\newlabel{eq:elongation-rate@cref}{{[equation][1][6]6.1}{[1][78][]79}}
\@writefile{lof}{\defcounter {refsection}{0}\relax }\@writefile{lof}{\contentsline {figure}{\numberline {6.2}{\ignorespaces SSD and WCD trace pre-processing}}{79}{figure.caption.74}\protected@file@percent }
\newlabel{fig:trace_augmentation}{{6.2}{79}{SSD and WCD trace pre-processing}{figure.caption.74}{}}
\newlabel{fig:trace_augmentation@cref}{{[figure][2][6]6.2}{[1][79][]79}}
\@writefile{toc}{\defcounter {refsection}{0}\relax }\@writefile{toc}{\contentsline {subsection}{\numberline {6.3.3}Axial Layout and Padding}{80}{subsection.6.3.3}\protected@file@percent }
\@writefile{lof}{\defcounter {refsection}{0}\relax }\@writefile{lof}{\contentsline {figure}{\numberline {6.3}{\ignorespaces Shower footprint before and after pre-processing}}{81}{figure.caption.75}\protected@file@percent }
\newlabel{fig:footprint_padding}{{6.3}{81}{Shower footprint before and after pre-processing}{figure.caption.75}{}}
\newlabel{fig:footprint_padding@cref}{{[figure][3][6]6.3}{[1][80][]81}}
\@writefile{lot}{\defcounter {refsection}{0}\relax }\@writefile{lot}{\contentsline {table}{\numberline {6.1}{\ignorespaces DNN input arrays, dimensions, and units}}{81}{table.caption.76}\protected@file@percent }
\newlabel{tab:input_dimensions}{{6.1}{81}{DNN input arrays, dimensions, and units}{table.caption.76}{}}
\newlabel{tab:input_dimensions@cref}{{[table][1][6]6.1}{[1][80][]81}}
\@writefile{toc}{\defcounter {refsection}{0}\relax }\@writefile{toc}{\contentsline {subsection}{\numberline {6.3.4}Removal of Geometric Degeneracy}{82}{subsection.6.3.4}\protected@file@percent }
\@writefile{lof}{\defcounter {refsection}{0}\relax }\@writefile{lof}{\contentsline {figure}{\numberline {6.4}{\ignorespaces Rotation of the grid mapping}}{83}{figure.caption.77}\protected@file@percent }
\newlabel{fig:mapping_rotation}{{6.4}{83}{Rotation of the grid mapping}{figure.caption.77}{}}
\newlabel{fig:mapping_rotation@cref}{{[figure][4][6]6.4}{[1][83][]83}}
\@setckpt{./chapters/06_Data_Preparation}{
\setcounter{page}{84}
\setcounter{equation}{4}
\setcounter{enumi}{3}
\setcounter{enumii}{0}
\setcounter{enumiii}{0}
\setcounter{enumiv}{0}
\setcounter{footnote}{1}
\setcounter{mpfootnote}{0}
\setcounter{part}{0}
\setcounter{chapter}{6}
\setcounter{section}{3}
\setcounter{subsection}{4}
\setcounter{subsubsection}{0}
\setcounter{paragraph}{0}
\setcounter{subparagraph}{0}
\setcounter{figure}{4}
\setcounter{table}{1}
\setcounter{Item}{10}
\setcounter{Hfootnote}{9}
\setcounter{bookmark@seq@number}{0}
\setcounter{caption@flags}{0}
\setcounter{continuedfloat}{0}
\setcounter{parentequation}{0}
\setcounter{LT@tables}{0}
\setcounter{LT@chunks}{0}
\setcounter{subfigure}{0}
\setcounter{subtable}{0}
\setcounter{lofdepth}{1}
\setcounter{lotdepth}{1}
\setcounter{float@type}{4}
\setcounter{tabx@nest}{0}
\setcounter{listtotal}{0}
\setcounter{listcount}{0}
\setcounter{liststart}{0}
\setcounter{liststop}{0}
\setcounter{citecount}{0}
\setcounter{citetotal}{0}
\setcounter{multicitecount}{0}
\setcounter{multicitetotal}{0}
\setcounter{instcount}{132}
\setcounter{maxnames}{3}
\setcounter{minnames}{1}
\setcounter{maxitems}{3}
\setcounter{minitems}{1}
\setcounter{citecounter}{0}
\setcounter{maxcitecounter}{0}
\setcounter{savedcitecounter}{0}
\setcounter{uniquelist}{0}
\setcounter{uniquename}{0}
\setcounter{refsection}{0}
\setcounter{refsegment}{0}
\setcounter{maxextratitle}{0}
\setcounter{maxextratitleyear}{0}
\setcounter{maxextraname}{8}
\setcounter{maxextradate}{0}
\setcounter{maxextraalpha}{0}
\setcounter{abbrvpenalty}{50}
\setcounter{highnamepenalty}{50}
\setcounter{lownamepenalty}{25}
\setcounter{maxparens}{3}
\setcounter{parenlevel}{0}
\setcounter{mincomprange}{10}
\setcounter{maxcomprange}{100000}
\setcounter{mincompwidth}{1}
\setcounter{afterword}{0}
\setcounter{savedafterword}{0}
\setcounter{annotator}{0}
\setcounter{savedannotator}{0}
\setcounter{author}{0}
\setcounter{savedauthor}{0}
\setcounter{bookauthor}{0}
\setcounter{savedbookauthor}{0}
\setcounter{commentator}{0}
\setcounter{savedcommentator}{0}
\setcounter{editor}{0}
\setcounter{savededitor}{0}
\setcounter{editora}{0}
\setcounter{savededitora}{0}
\setcounter{editorb}{0}
\setcounter{savededitorb}{0}
\setcounter{editorc}{0}
\setcounter{savededitorc}{0}
\setcounter{foreword}{0}
\setcounter{savedforeword}{0}
\setcounter{holder}{0}
\setcounter{savedholder}{0}
\setcounter{introduction}{0}
\setcounter{savedintroduction}{0}
\setcounter{namea}{0}
\setcounter{savednamea}{0}
\setcounter{nameb}{0}
\setcounter{savednameb}{0}
\setcounter{namec}{0}
\setcounter{savednamec}{0}
\setcounter{translator}{0}
\setcounter{savedtranslator}{0}
\setcounter{shortauthor}{0}
\setcounter{savedshortauthor}{0}
\setcounter{shorteditor}{0}
\setcounter{savedshorteditor}{0}
\setcounter{labelname}{0}
\setcounter{savedlabelname}{0}
\setcounter{institution}{0}
\setcounter{savedinstitution}{0}
\setcounter{lista}{0}
\setcounter{savedlista}{0}
\setcounter{listb}{0}
\setcounter{savedlistb}{0}
\setcounter{listc}{0}
\setcounter{savedlistc}{0}
\setcounter{listd}{0}
\setcounter{savedlistd}{0}
\setcounter{liste}{0}
\setcounter{savedliste}{0}
\setcounter{listf}{0}
\setcounter{savedlistf}{0}
\setcounter{location}{0}
\setcounter{savedlocation}{0}
\setcounter{organization}{0}
\setcounter{savedorganization}{0}
\setcounter{origlocation}{0}
\setcounter{savedoriglocation}{0}
\setcounter{origpublisher}{0}
\setcounter{savedorigpublisher}{0}
\setcounter{publisher}{0}
\setcounter{savedpublisher}{0}
\setcounter{language}{0}
\setcounter{savedlanguage}{0}
\setcounter{origlanguage}{0}
\setcounter{savedoriglanguage}{0}
\setcounter{pageref}{0}
\setcounter{savedpageref}{0}
\setcounter{textcitecount}{0}
\setcounter{textcitetotal}{0}
\setcounter{textcitemaxnames}{0}
\setcounter{biburlbigbreakpenalty}{100}
\setcounter{biburlbreakpenalty}{200}
\setcounter{biburlnumpenalty}{0}
\setcounter{biburlucpenalty}{0}
\setcounter{biburllcpenalty}{0}
\setcounter{smartand}{1}
\setcounter{bbx:relatedcount}{0}
\setcounter{bbx:relatedtotal}{0}
\setcounter{currfiledepth}{0}
\setcounter{su@anzahl}{0}
\setcounter{section@level}{2}
}
