\relax 
\providecommand\hyper@newdestlabel[2]{}
\@writefile{toc}{\defcounter {refsection}{0}\relax }\@writefile{toc}{\contentsline {chapter}{\numberline {A}EA ANALYSIS: ADDITIONAL PLOTS}{111}{appendix.A}\protected@file@percent }
\@writefile{lof}{\defcounter {refsection}{0}\relax }\@writefile{lof}{\addvspace {10\p@ }}
\@writefile{lot}{\defcounter {refsection}{0}\relax }\@writefile{lot}{\addvspace {10\p@ }}
\newlabel{app:appendix-a}{{A}{111}{EA ANALYSIS: ADDITIONAL PLOTS}{appendix.A}{}}
\newlabel{app:appendix-a@cref}{{[appendix][1][2147483647]A}{[1][111][]111}}
\@writefile{toc}{\defcounter {refsection}{0}\relax }\@writefile{toc}{\contentsline {section}{\numberline {A.1}SD-433 Reconstruction and HV Stability}{111}{section.A.1}\protected@file@percent }
\@writefile{lof}{\defcounter {refsection}{0}\relax }\@writefile{lof}{\contentsline {figure}{\numberline {A.1}{\ignorespaces Full HV of EA stations 20 and 22}}{111}{figure.caption.97}\protected@file@percent }
\newlabel{fig:hvssd2022}{{A.1}{111}{Full HV of EA stations 20 and 22}{figure.caption.97}{}}
\newlabel{fig:hvssd2022@cref}{{[figure][1][2147483647,1]A.1}{[1][111][]111}}
\@writefile{toc}{\defcounter {refsection}{0}\relax }\@writefile{toc}{\contentsline {section}{\numberline {A.2}Timing Analysis without Shower Direction Correction}{112}{section.A.2}\protected@file@percent }
\@writefile{lof}{\defcounter {refsection}{0}\relax }\@writefile{lof}{\contentsline {figure}{\numberline {A.2}{\ignorespaces Azimuth angle vs\onedot  $\Delta t$'s for EA stations 20 and 22}}{112}{figure.caption.98}\protected@file@percent }
\newlabel{fig:exp-vs-gps_2022}{{A.2}{112}{Azimuth angle \vs $\Delta t$'s for EA stations 20 and 22}{figure.caption.98}{}}
\newlabel{fig:exp-vs-gps_2022@cref}{{[figure][2][2147483647,1]A.2}{[1][112][]112}}
\@writefile{lof}{\defcounter {refsection}{0}\relax }\@writefile{lof}{\contentsline {figure}{\numberline {A.3}{\ignorespaces Gauss-fit to $\Delta t$'s for EA stations 20 and 22}}{112}{figure.caption.99}\protected@file@percent }
\newlabel{fig:st20-22_befandaft}{{A.3}{112}{Gauss-fit to $\Delta t$'s for EA stations 20 and 22}{figure.caption.99}{}}
\newlabel{fig:st20-22_befandaft@cref}{{[figure][3][2147483647,1]A.3}{[1][112][]112}}
\@writefile{lof}{\defcounter {refsection}{0}\relax }\@writefile{lof}{\contentsline {figure}{\numberline {A.4}{\ignorespaces Azimuth angle vs\onedot  $\Delta t$'s for EA stations 22 and 39}}{113}{figure.caption.100}\protected@file@percent }
\newlabel{fig:exp-vs-gps_2239}{{A.4}{113}{Azimuth angle \vs $\Delta t$'s for EA stations 22 and 39}{figure.caption.100}{}}
\newlabel{fig:exp-vs-gps_2239@cref}{{[figure][4][2147483647,1]A.4}{[1][112][]113}}
\@writefile{lof}{\defcounter {refsection}{0}\relax }\@writefile{lof}{\contentsline {figure}{\numberline {A.5}{\ignorespaces Gauss-fit to $\Delta t$'s for EA stations 22 and 39}}{113}{figure.caption.101}\protected@file@percent }
\newlabel{fig:st22-39_befandaft}{{A.5}{113}{Gauss-fit to $\Delta t$'s for EA stations 22 and 39}{figure.caption.101}{}}
\newlabel{fig:st22-39_befandaft@cref}{{[figure][5][2147483647,1]A.5}{[1][113][]113}}
\@writefile{toc}{\defcounter {refsection}{0}\relax }\@writefile{toc}{\contentsline {section}{\numberline {A.3}Timing Analysis during Full-Bandwidth Trigger Period}{114}{section.A.3}\protected@file@percent }
\@writefile{lof}{\defcounter {refsection}{0}\relax }\@writefile{lof}{\contentsline {figure}{\numberline {A.6}{\ignorespaces Gauss-fit to $\Delta t$'s for EA stations 20 and 22 during FB trigger period}}{114}{figure.caption.102}\protected@file@percent }
\newlabel{fig:fb_trigger_20-22}{{A.6}{114}{Gauss-fit to $\Delta t$'s for EA stations 20 and 22 during FB trigger period}{figure.caption.102}{}}
\newlabel{fig:fb_trigger_20-22@cref}{{[figure][6][2147483647,1]A.6}{[1][113][]114}}
\@writefile{lof}{\defcounter {refsection}{0}\relax }\@writefile{lof}{\contentsline {figure}{\numberline {A.7}{\ignorespaces Gauss-fit to $\Delta t$'s for EA stations 22 and 39 during FB trigger period}}{114}{figure.caption.103}\protected@file@percent }
\newlabel{fig:fb_trigger_22-39}{{A.7}{114}{Gauss-fit to $\Delta t$'s for EA stations 22 and 39 during FB trigger period}{figure.caption.103}{}}
\newlabel{fig:fb_trigger_22-39@cref}{{[figure][7][2147483647,1]A.7}{[1][114][]114}}
\@writefile{toc}{\defcounter {refsection}{0}\relax }\@writefile{toc}{\contentsline {section}{\numberline {A.4}Timing Analysis after switch of GPS module}{115}{section.A.4}\protected@file@percent }
\@writefile{lof}{\defcounter {refsection}{0}\relax }\@writefile{lof}{\contentsline {figure}{\numberline {A.8}{\ignorespaces Gauss-fit to $\Delta t$'s for EA stations 20 and 22 with new GPS module}}{115}{figure.caption.104}\protected@file@percent }
\newlabel{fig:gps_rec_20-22}{{A.8}{115}{Gauss-fit to $\Delta t$'s for EA stations 20 and 22 with new GPS module}{figure.caption.104}{}}
\newlabel{fig:gps_rec_20-22@cref}{{[figure][8][2147483647,1]A.8}{[1][114][]115}}
\@writefile{lof}{\defcounter {refsection}{0}\relax }\@writefile{lof}{\contentsline {figure}{\numberline {A.9}{\ignorespaces Gauss-fit to $\Delta t$'s for EA stations 22 and 39 with new GPS module}}{115}{figure.caption.105}\protected@file@percent }
\newlabel{fig:gps_rec_22-39}{{A.9}{115}{Gauss-fit to $\Delta t$'s for EA stations 22 and 39 with new GPS module}{figure.caption.105}{}}
\newlabel{fig:gps_rec_22-39@cref}{{[figure][9][2147483647,1]A.9}{[1][115][]115}}
\@writefile{toc}{\defcounter {refsection}{0}\relax }\@writefile{toc}{\contentsline {section}{\numberline {A.5}MIP Peak Stability vs\onedot  Time/Temperature}{116}{section.A.5}\protected@file@percent }
\@writefile{lof}{\defcounter {refsection}{0}\relax }\@writefile{lof}{\contentsline {figure}{\numberline {A.10}{\ignorespaces MIP and PMT temperature correlation for station 22}}{116}{figure.caption.106}\protected@file@percent }
\newlabel{fig:MIPvsTemp22}{{A.10}{116}{MIP and PMT temperature correlation for station 22}{figure.caption.106}{}}
\newlabel{fig:MIPvsTemp22@cref}{{[figure][10][2147483647,1]A.10}{[1][115][]116}}
\@writefile{toc}{\defcounter {refsection}{0}\relax }\@writefile{toc}{\contentsline {section}{\numberline {A.6}Trace Baseline Stability}{116}{section.A.6}\protected@file@percent }
\@writefile{lof}{\defcounter {refsection}{0}\relax }\@writefile{lof}{\contentsline {figure}{\numberline {A.11}{\ignorespaces Baseline vs\onedot  time for station 22 with UUB V1 and V2}}{116}{figure.caption.107}\protected@file@percent }
\newlabel{fig:BaseTimeUUBV2}{{A.11}{116}{Baseline \vs time for station 22 with UUB V1 and V2}{figure.caption.107}{}}
\newlabel{fig:BaseTimeUUBV2@cref}{{[figure][11][2147483647,1]A.11}{[1][116][]116}}
\@writefile{lof}{\defcounter {refsection}{0}\relax }\@writefile{lof}{\contentsline {figure}{\numberline {A.12}{\ignorespaces Baseline-temperature correlations for station 22 with UUB V1 and V2}}{117}{figure.caption.108}\protected@file@percent }
\newlabel{fig:BaselinevsTemp22}{{A.12}{117}{Baseline-temperature correlations for station 22 with UUB V1 and V2}{figure.caption.108}{}}
\newlabel{fig:BaselinevsTemp22@cref}{{[figure][12][2147483647,1]A.12}{[1][116][]117}}
\@setckpt{./chapters/a_appendix}{
\setcounter{page}{118}
\setcounter{equation}{0}
\setcounter{enumi}{2}
\setcounter{enumii}{0}
\setcounter{enumiii}{0}
\setcounter{enumiv}{0}
\setcounter{footnote}{0}
\setcounter{mpfootnote}{0}
\setcounter{part}{0}
\setcounter{chapter}{1}
\setcounter{section}{6}
\setcounter{subsection}{0}
\setcounter{subsubsection}{0}
\setcounter{paragraph}{0}
\setcounter{subparagraph}{0}
\setcounter{figure}{12}
\setcounter{table}{0}
\setcounter{Item}{12}
\setcounter{Hfootnote}{10}
\setcounter{bookmark@seq@number}{0}
\setcounter{caption@flags}{0}
\setcounter{continuedfloat}{0}
\setcounter{parentequation}{0}
\setcounter{LT@tables}{0}
\setcounter{LT@chunks}{0}
\setcounter{subfigure}{0}
\setcounter{subtable}{0}
\setcounter{lofdepth}{1}
\setcounter{lotdepth}{1}
\setcounter{float@type}{4}
\setcounter{tabx@nest}{0}
\setcounter{listtotal}{0}
\setcounter{listcount}{0}
\setcounter{liststart}{0}
\setcounter{liststop}{0}
\setcounter{citecount}{0}
\setcounter{citetotal}{0}
\setcounter{multicitecount}{0}
\setcounter{multicitetotal}{0}
\setcounter{instcount}{141}
\setcounter{maxnames}{3}
\setcounter{minnames}{1}
\setcounter{maxitems}{3}
\setcounter{minitems}{1}
\setcounter{citecounter}{0}
\setcounter{maxcitecounter}{0}
\setcounter{savedcitecounter}{0}
\setcounter{uniquelist}{0}
\setcounter{uniquename}{0}
\setcounter{refsection}{0}
\setcounter{refsegment}{0}
\setcounter{maxextratitle}{0}
\setcounter{maxextratitleyear}{0}
\setcounter{maxextraname}{8}
\setcounter{maxextradate}{0}
\setcounter{maxextraalpha}{0}
\setcounter{abbrvpenalty}{50}
\setcounter{highnamepenalty}{50}
\setcounter{lownamepenalty}{25}
\setcounter{maxparens}{3}
\setcounter{parenlevel}{0}
\setcounter{mincomprange}{10}
\setcounter{maxcomprange}{100000}
\setcounter{mincompwidth}{1}
\setcounter{afterword}{0}
\setcounter{savedafterword}{0}
\setcounter{annotator}{0}
\setcounter{savedannotator}{0}
\setcounter{author}{0}
\setcounter{savedauthor}{0}
\setcounter{bookauthor}{0}
\setcounter{savedbookauthor}{0}
\setcounter{commentator}{0}
\setcounter{savedcommentator}{0}
\setcounter{editor}{0}
\setcounter{savededitor}{0}
\setcounter{editora}{0}
\setcounter{savededitora}{0}
\setcounter{editorb}{0}
\setcounter{savededitorb}{0}
\setcounter{editorc}{0}
\setcounter{savededitorc}{0}
\setcounter{foreword}{0}
\setcounter{savedforeword}{0}
\setcounter{holder}{0}
\setcounter{savedholder}{0}
\setcounter{introduction}{0}
\setcounter{savedintroduction}{0}
\setcounter{namea}{0}
\setcounter{savednamea}{0}
\setcounter{nameb}{0}
\setcounter{savednameb}{0}
\setcounter{namec}{0}
\setcounter{savednamec}{0}
\setcounter{translator}{0}
\setcounter{savedtranslator}{0}
\setcounter{shortauthor}{0}
\setcounter{savedshortauthor}{0}
\setcounter{shorteditor}{0}
\setcounter{savedshorteditor}{0}
\setcounter{labelname}{0}
\setcounter{savedlabelname}{0}
\setcounter{institution}{0}
\setcounter{savedinstitution}{0}
\setcounter{lista}{0}
\setcounter{savedlista}{0}
\setcounter{listb}{0}
\setcounter{savedlistb}{0}
\setcounter{listc}{0}
\setcounter{savedlistc}{0}
\setcounter{listd}{0}
\setcounter{savedlistd}{0}
\setcounter{liste}{0}
\setcounter{savedliste}{0}
\setcounter{listf}{0}
\setcounter{savedlistf}{0}
\setcounter{location}{0}
\setcounter{savedlocation}{0}
\setcounter{organization}{0}
\setcounter{savedorganization}{0}
\setcounter{origlocation}{0}
\setcounter{savedoriglocation}{0}
\setcounter{origpublisher}{0}
\setcounter{savedorigpublisher}{0}
\setcounter{publisher}{0}
\setcounter{savedpublisher}{0}
\setcounter{language}{0}
\setcounter{savedlanguage}{0}
\setcounter{origlanguage}{0}
\setcounter{savedoriglanguage}{0}
\setcounter{pageref}{0}
\setcounter{savedpageref}{0}
\setcounter{textcitecount}{0}
\setcounter{textcitetotal}{0}
\setcounter{textcitemaxnames}{0}
\setcounter{biburlbigbreakpenalty}{100}
\setcounter{biburlbreakpenalty}{200}
\setcounter{biburlnumpenalty}{0}
\setcounter{biburlucpenalty}{0}
\setcounter{biburllcpenalty}{0}
\setcounter{smartand}{1}
\setcounter{bbx:relatedcount}{0}
\setcounter{bbx:relatedtotal}{0}
\setcounter{currfiledepth}{0}
\setcounter{su@anzahl}{0}
\setcounter{section@level}{1}
}
