1.855000000000000071e+01 1.185473677231578371e+00 9.538223303603462488e-01 4.171583853201332914e+01 6.908719664636702174e-01
1.864999999999999858e+01 7.101152443031351069e+00 9.095433036497571067e-01 4.135834902108353361e+01 6.889870685636315661e-01
1.875000000000000000e+01 7.468133075690793099e+00 8.844984971048048816e-01 4.003135585590330692e+01 6.526643912283123239e-01
1.885000000000000142e+01 1.148404095503916977e+01 9.151060779863998684e-01 3.983610596255753933e+01 6.971587408217867488e-01
1.894999999999999929e+01 1.483409531120643265e+01 8.896863281322168193e-01 3.792854228608673850e+01 6.776833705291649412e-01
1.905000000000000071e+01 1.368571237841758403e+01 8.734550423626048499e-01 3.673798182672350521e+01 6.604942998349953021e-01
1.914999999999999858e+01 1.375991381861975249e+01 8.151658546533288030e-01 3.637667371479113854e+01 6.205858579508052308e-01
1.925000000000000000e+01 1.492564988945363247e+01 8.508400655385754963e-01 3.661065415013739965e+01 6.348420640441919671e-01
1.935000000000000142e+01 1.618888460734110879e+01 8.308918278031267590e-01 3.513950382373298709e+01 6.379828180561296636e-01
1.944999999999999929e+01 1.574775103923396991e+01 8.140947618599905233e-01 3.381161651876603003e+01 6.247239169461485941e-01
1.955000000000000071e+01 1.493049326397277099e+01 7.715503149509612690e-01 3.257870452730076494e+01 5.890924381960780387e-01
1.964999999999999858e+01 1.721562583690135995e+01 8.001112803412347985e-01 3.294048035026274590e+01 6.297264443854222460e-01
1.975000000000000000e+01 2.000377691285333626e+01 7.798106775441402405e-01 3.258444362162365593e+01 5.985960119391446899e-01
1.985000000000000142e+01 1.869429069258276499e+01 7.695116775461466885e-01 3.206493635503107242e+01 6.086921363346138314e-01
1.994999999999999929e+01 1.758026517897986096e+01 7.582375730327617358e-01 3.114298580909378700e+01 5.623902788500335648e-01
2.005000000000000071e+01 1.587296537406800212e+01 7.816934239788317917e-01 2.837365749571562645e+01 5.903677846501431681e-01
