1.855000000000000071e+01 1.356439037032907535e+01 8.003983653443716983e-01 3.045467687037722726e+01 5.882092389262664200e-01
1.864999999999999858e+01 1.338603786049534783e+01 7.670632780152115693e-01 3.062076073742395366e+01 5.658432992266445583e-01
1.875000000000000000e+01 1.440792726439635985e+01 7.323229798781724087e-01 2.947368849917066669e+01 5.630323816221560751e-01
1.885000000000000142e+01 1.357532612136763106e+01 6.600942702566187092e-01 2.763501130535791361e+01 4.965051497164261196e-01
1.894999999999999929e+01 1.448938095296387019e+01 6.971137661588762136e-01 2.681905049467930269e+01 4.891429399106733689e-01
1.905000000000000071e+01 1.118022586240238425e+01 6.392679087934851623e-01 2.580109057113989479e+01 4.733130581672460035e-01
1.914999999999999858e+01 1.215155307329791867e+01 6.254436098129312338e-01 2.486990001435512809e+01 4.466052928895871132e-01
1.925000000000000000e+01 1.155483464965856832e+01 6.354303719459271083e-01 2.449627091606699736e+01 4.810884408737591267e-01
1.935000000000000142e+01 1.204652913668367376e+01 6.193931240463872445e-01 2.441402122252793916e+01 4.608988171703338743e-01
1.944999999999999929e+01 1.340930371995199266e+01 5.547145759496643347e-01 2.288652723275139422e+01 4.069668616327982158e-01
1.955000000000000071e+01 1.303628984043433725e+01 5.583026122493988108e-01 2.291861096079199811e+01 4.236166347852481362e-01
1.964999999999999858e+01 1.315455539664071871e+01 5.245993372249357911e-01 2.210667466513629620e+01 4.065887206979941215e-01
1.975000000000000000e+01 1.425479755597952547e+01 5.565265218785222512e-01 2.329073823703287971e+01 4.268816217011356939e-01
1.985000000000000142e+01 1.706488383901969641e+01 5.433071388178190020e-01 2.320521202208782441e+01 4.184224571992811725e-01
1.994999999999999929e+01 1.846817640885387135e+01 5.526866985883082117e-01 2.328302352071499826e+01 4.062506385219188387e-01
2.007000000000000028e+01 1.486042476353161490e+01 4.723945333871903407e-01 2.248916271032798520e+01 3.505243291159255703e-01
