1.266000000000000014e+01 1.688485785145232043e+01 4.814279222098216682e-01 3.746368693283969264e+01 4.176802391482738464e-01
1.764999999999999858e+01 1.818067012036925334e+01 4.061743132130326006e-01 3.695151962980200011e+01 3.687892947414239120e-01
2.264000000000000057e+01 1.546105030663855295e+01 3.333242973025237754e-01 3.460401790689532930e+01 3.128174025862514029e-01
2.755000000000000071e+01 1.656904090251286732e+01 2.876282583566417417e-01 3.206159519314430639e+01 2.612044144048625283e-01
3.253000000000000114e+01 1.518274713295417833e+01 2.595977883341413217e-01 3.049232203487588322e+01 2.468799819145623686e-01
3.754999999999999716e+01 1.419157036464551425e+01 2.253430732531003511e-01 2.756646138816378766e+01 2.132885917578220270e-01
4.253000000000000114e+01 1.383599169831345144e+01 2.156154211063637249e-01 2.603670537311943889e+01 1.991700086267992609e-01
4.747999999999999687e+01 1.348429931013720129e+01 2.082330757633792939e-01 2.561091427799359366e+01 1.934347877489927259e-01
