3.310000000000000053e+00 1.274350703315412048e+01 2.011573083080297142e+00 2.991766933557747521e+01 1.604427780723434172e+00
7.750000000000000000e+00 1.686260118838751509e+01 1.174918952120491911e+00 3.214703475652653708e+01 8.975243314307311815e-01
1.275000000000000000e+01 1.953973940864659653e+01 8.729868964204365867e-01 3.212126509208562908e+01 6.461897134553926669e-01
1.766000000000000014e+01 1.906292650599170102e+01 7.424566411352168105e-01 3.080745162180529917e+01 5.555553798694438106e-01
2.260999999999999943e+01 1.600316492978078386e+01 6.090410218475953430e-01 2.825585367615189725e+01 4.353030085653157855e-01
2.762000000000000099e+01 1.687190860325432951e+01 5.180346055907549818e-01 2.697336824295564384e+01 3.779091124703339855e-01
3.254999999999999716e+01 1.463022656381687980e+01 4.752177038317640378e-01 2.531107883843576190e+01 3.442221278911064553e-01
3.746999999999999886e+01 1.424965236307083671e+01 4.127473954758109076e-01 2.272983235982017547e+01 2.834473120554915626e-01
4.247999999999999687e+01 1.270296338695554361e+01 3.854175863640877941e-01 2.192935744366570106e+01 2.872110336955043808e-01
4.749000000000000199e+01 1.212868275597758227e+01 3.911440561541637551e-01 2.195465753637587625e+01 2.917225106817474267e-01
5.246000000000000085e+01 1.139377815914146375e+01 4.085558688915806314e-01 2.284352434393645126e+01 3.002999935075895688e-01
5.740999999999999659e+01 1.189139455352158414e+01 4.825861460225579491e-01 2.547839654874568183e+01 3.634015266458783810e-01
