1.855000000000000071e+01 5.742591849294253592e+00 1.113848761701258017e+00 4.094192975684016744e+01 8.271431833938928113e-01
1.864999999999999858e+01 1.101352371331956803e+01 1.045017086177144394e+00 4.060988175090893293e+01 8.070558032694179484e-01
1.875000000000000000e+01 1.212528203487180178e+01 1.009516423304889443e+00 3.896408169155665036e+01 7.430121082878203831e-01
1.885000000000000142e+01 1.334649647554017271e+01 1.068314982430218940e+00 4.033510795195974197e+01 8.054481680698579726e-01
1.894999999999999929e+01 1.765275548719223053e+01 1.040006700319214383e+00 3.822536123479405745e+01 7.891416183883811497e-01
1.905000000000000071e+01 1.761995608849460027e+01 9.648198946954463784e-01 3.484264127736775407e+01 7.242362615129720460e-01
1.914999999999999858e+01 1.703065820922134677e+01 9.529623310050421292e-01 3.585701782227034329e+01 7.524862326872907570e-01
1.925000000000000000e+01 1.673304314581895369e+01 9.827120213214269873e-01 3.635753655684191443e+01 7.399692432691798993e-01
1.935000000000000142e+01 1.747760254012057501e+01 9.418750530979039803e-01 3.518816014754118982e+01 7.136761641463557071e-01
1.944999999999999929e+01 1.683626297170842179e+01 9.407896884668068838e-01 3.388842468332827451e+01 7.228712720808605496e-01
1.955000000000000071e+01 1.570836667793782304e+01 9.079783769944794747e-01 3.284008226077776982e+01 6.941909910429006070e-01
1.964999999999999858e+01 1.649233678129699854e+01 9.247044693838045726e-01 3.273097759440655352e+01 7.400783479466950254e-01
1.975000000000000000e+01 2.096272245361137720e+01 8.943563347817350406e-01 3.222114344970211874e+01 6.946684959502305023e-01
1.985000000000000142e+01 1.775487150327948171e+01 9.180507759987996952e-01 3.257614136969765184e+01 6.998345609538184631e-01
1.994999999999999929e+01 1.715454261726462803e+01 8.728490617831846654e-01 3.114990691380997845e+01 6.524499559852556807e-01
2.005000000000000071e+01 1.552037510960190048e+01 9.183113611747236726e-01 2.887388465704191276e+01 7.097028473898232548e-01
