1.265000000000000036e+01 1.974057279839590962e+01 6.662109011686092597e-01 2.421239244573236249e+01 4.907509870141191777e-01
1.764999999999999858e+01 1.933837228917152373e+01 5.650808245329621560e-01 2.333754328724047156e+01 4.215876126909447463e-01
2.269999999999999929e+01 1.637768226262961591e+01 4.458687217643980683e-01 2.090963489006227150e+01 3.243039033450430542e-01
2.753000000000000114e+01 1.638969995473417285e+01 3.959800368738040088e-01 2.031942464490724731e+01 2.987753260893117879e-01
3.249000000000000199e+01 1.535715387642585483e+01 3.658411257890351043e-01 1.980422327701724328e+01 2.677777757564204220e-01
3.754999999999999716e+01 1.424335303117992702e+01 3.223394658153033721e-01 1.859680641970555826e+01 2.427817249204111683e-01
4.253999999999999915e+01 1.410960818598631938e+01 3.245091366995483395e-01 1.833822465413992120e+01 2.436396370063750039e-01
4.750000000000000000e+01 1.431767002083536688e+01 3.040530973556914707e-01 1.805394210361815155e+01 2.323881564104230413e-01
