1.855000000000000071e+01 1.521009129422237871e+00 9.738446771841915428e-01 3.850207886815806546e+01 7.402755380849862510e-01
1.864999999999999858e+01 7.346929066378569129e-01 8.653098640525328511e-01 3.596816002030539039e+01 6.645232834681952250e-01
1.875000000000000000e+01 1.522350009181477892e+00 9.221135459513929433e-01 3.692612960348136397e+01 7.240680450997869499e-01
1.885000000000000142e+01 2.157176025209899706e+00 8.351539201967620452e-01 3.489498034635676760e+01 6.300221519137768622e-01
1.894999999999999929e+01 4.912347637312980630e+00 7.886743211600907300e-01 3.318276942649999484e+01 6.103610261093906919e-01
1.905000000000000071e+01 2.549533024146269700e+00 7.851708637986337669e-01 3.291185666822947553e+01 6.064534279543238871e-01
1.914999999999999858e+01 2.614630900129530922e+00 7.359237560969540404e-01 3.074001963559141259e+01 5.492513136316061750e-01
1.925000000000000000e+01 3.638020363757495712e+00 7.156717003367485397e-01 3.117367416620299991e+01 5.470036738457788594e-01
1.935000000000000142e+01 4.150096227678727878e+00 7.074537768128995596e-01 2.983524395164179666e+01 5.401379075474208591e-01
1.944999999999999929e+01 4.477094989093370003e+00 7.235086929467641204e-01 3.022564777856729279e+01 5.594367676969203007e-01
1.955000000000000071e+01 5.168733832997345345e+00 7.091860778503275009e-01 3.001792283894542379e+01 5.631413264280964448e-01
1.964999999999999858e+01 3.265102748385955156e+00 6.465717293730312010e-01 2.781408459309271208e+01 5.134843181517535493e-01
1.975000000000000000e+01 6.643023199836742165e+00 6.857865332227216504e-01 2.837381162012039582e+01 5.296128277272041940e-01
1.985000000000000142e+01 6.649170954398938349e+00 6.685882821605009241e-01 2.830070894744232035e+01 5.187632861484791080e-01
1.994999999999999929e+01 4.176573824127574497e+00 6.399940548237831317e-01 2.726777085443842452e+01 4.862603197633530994e-01
2.005999999999999872e+01 1.354787140550568481e+00 6.586691773187889343e-01 2.691704414634190812e+01 4.911979724082436438e-01
