1.855000000000000071e+01 1.475071395206941993e+01 7.328354919665458489e-01 2.265061961110622235e+01 5.697879909641224705e-01
1.864999999999999858e+01 1.305557360214213958e+01 6.756253774809466428e-01 2.314614244774987739e+01 5.331033919701700929e-01
1.875000000000000000e+01 1.149185365183547702e+01 6.158887271244201100e-01 2.107693538723302495e+01 4.428287348961737480e-01
1.885000000000000142e+01 8.304785736013325703e+00 5.804660664856590158e-01 2.021945882526616245e+01 4.411569452269696878e-01
1.894999999999999929e+01 8.262174428133876702e+00 5.958681181247849068e-01 2.000553706869628101e+01 4.549064065370036491e-01
1.905000000000000071e+01 6.260507104205625950e+00 5.148827432550900918e-01 1.881386790344720694e+01 4.015991809581231919e-01
1.914999999999999858e+01 6.280117524508439963e+00 4.961512862709233640e-01 1.829779892568502930e+01 3.848716176785620391e-01
1.925000000000000000e+01 7.032579982792969808e+00 5.019088425614761650e-01 1.817276627081675144e+01 3.834882004358297625e-01
1.935000000000000142e+01 6.430518820660739543e+00 4.652484488824157327e-01 1.704909806588110044e+01 3.474553572706225446e-01
1.944999999999999929e+01 6.491503915908466205e+00 4.789778471568001406e-01 1.770806575976743602e+01 3.432561271500709776e-01
1.955000000000000071e+01 5.176747969199999133e+00 4.702890132780999100e-01 1.724750481614773889e+01 3.617322187957910939e-01
1.964999999999999858e+01 5.653909083409129011e+00 4.584768976697206067e-01 1.738934409234187584e+01 3.459850951665749408e-01
1.975000000000000000e+01 5.338689741795959343e+00 4.468121354508418630e-01 1.655529267380048353e+01 3.454285320330599540e-01
1.985000000000000142e+01 5.759960288843310572e+00 4.578646144701948861e-01 1.678338273996844876e+01 3.413620017039017407e-01
1.994999999999999929e+01 6.219922161384076276e+00 5.261930451932957942e-01 1.784990801041337249e+01 4.016341591850988713e-01
2.007999999999999829e+01 4.704485154035684680e+00 3.683464202434623136e-01 1.694862642951145304e+01 2.812579180066357987e-01
