3.310000000000000053e+00 1.385984385492891935e+00 1.989924879384401546e+00 3.057936708061301800e+01 1.535228401909191520e+00
7.750000000000000000e+00 8.374999560948886312e+00 1.168261777929876288e+00 3.221116770912425409e+01 8.688028597581682888e-01
1.275000000000000000e+01 8.415755745926785991e+00 8.447096235531844632e-01 3.067148597820401790e+01 6.302981135885363795e-01
1.766000000000000014e+01 7.398616837389317524e+00 7.525156054155083263e-01 3.081726939271002053e+01 5.570761593898523323e-01
2.260999999999999943e+01 4.983283759470111818e+00 6.176887525887004848e-01 2.871047168371987013e+01 4.729958838664974907e-01
2.762000000000000099e+01 6.267526155377253438e+00 5.070162680715175618e-01 2.624842842599673887e+01 3.722269485904938224e-01
3.254999999999999716e+01 4.350144568316625993e+00 4.703618010287573536e-01 2.502936688703798751e+01 3.444526106437047486e-01
3.746999999999999886e+01 3.816924664219157659e+00 4.247707556165927212e-01 2.388417675765312254e+01 3.191730820526912926e-01
4.249000000000000199e+01 2.927957570130669041e+00 3.903771345744637689e-01 2.229192528352278657e+01 2.915162336671210941e-01
4.749000000000000199e+01 2.389915138791141480e+00 3.855963345198189507e-01 2.158676705384731420e+01 2.930289949756788581e-01
5.246000000000000085e+01 3.129968424983077036e+00 3.792104314329457493e-01 2.095455046137688626e+01 2.847102420161421454e-01
5.740999999999999659e+01 7.752079221285584687e+00 4.631463598885712241e-01 2.398770163737155414e+01 3.371014073449125070e-01
